<?xml version="1.0" standalone="no"?>
<!DOCTYPE svg PUBLIC "-//W3C//DTD SVG 1.1//EN" "http://www.w3.org/Graphics/SVG/1.1/DTD/svg11.dtd" >
<svg xmlns="http://www.w3.org/2000/svg">
<metadata></metadata>
<defs>
<font id="clanotthin" horiz-adv-x="1347" >
<font-face units-per-em="2048" ascent="1612" descent="-436" />
<missing-glyph horiz-adv-x="690" />
<glyph unicode="&#xfb01;" horiz-adv-x="1398" d="M92 1149v47h207v61q0 176 91 272.5t284 96.5q71 0 145 -18l-4 -45q-63 18 -133 18q-164 0 -243 -84t-79 -240v-61h756v-1196h-61v1149h-695v-1149h-61v1149h-207zM1016 1561q0 31 18.5 48t50.5 17t51 -17t19 -48q0 -68 -70 -68q-34 0 -51.5 15t-17.5 53z" />
<glyph unicode="&#xfb02;" horiz-adv-x="1341" d="M90 1149v47h209v70q0 178 109.5 275t353.5 97q79 0 179.5 -9.5t129.5 -10.5v-1618h-61v1577q-144 14 -246 14q-214 0 -309 -81.5t-95 -243.5v-70h316v-47h-316v-1149h-61v1149h-209z" />
<glyph horiz-adv-x="0" />
<glyph horiz-adv-x="0" />
<glyph horiz-adv-x="682" />
<glyph unicode="&#xd;" horiz-adv-x="690" />
<glyph unicode=" "  horiz-adv-x="690" />
<glyph unicode="&#x09;" horiz-adv-x="690" />
<glyph unicode="&#xa0;" horiz-adv-x="690" />
<glyph unicode="!" horiz-adv-x="620" d="M242 41q0 30 18 46.5t49 16.5q68 0 68 -63q0 -32 -16.5 -46.5t-51.5 -14.5q-67 0 -67 61zM272 1536h70l-16 -1167h-41z" />
<glyph unicode="&#x22;" horiz-adv-x="694" d="M147 1585h84l-26 -414h-43zM463 1585h84l-27 -414h-43z" />
<glyph unicode="#" horiz-adv-x="1337" d="M150 526v52h284l68 411h-348v51h352l69 496h50l-68 -496h295l72 496h47l-70 -496h285v-51h-291l-64 -411h353v-52h-359l-73 -526h-50l74 526h-299l-71 -526h-50l72 526h-278zM483 578h299l66 411h-299z" />
<glyph unicode="$" horiz-adv-x="1247" d="M147 86l11 68q179 -112 393 -123l45 757q-185 65 -259 107q-160 91 -183 237q-4 27 -4 56q0 174 131.5 272t361.5 101l8 137l51 -2l-8 -137q103 -4 192 -27.5t142 -52.5l-10 -60q-162 75 -328 80l-41 -659q58 -20 97 -35t91 -39.5t86.5 -47.5t71.5 -57.5t59 -73t36 -89 t14 -109.5q0 -213 -124.5 -313t-383.5 -103l-8 -151l-49 4l8 149q-115 4 -220.5 33.5t-179.5 77.5zM211 1190q0 -41 12 -77t29 -63t49.5 -52.5t59.5 -42.5t74 -37t78.5 -31.5t86.5 -30.5l39 645q-212 -1 -320 -86t-108 -225zM600 31q224 2 335.5 88.5t111.5 265.5 q0 56 -14.5 102.5t-44.5 83.5t-63.5 65t-84 53.5t-93 42.5t-102.5 38z" />
<glyph unicode="%" horiz-adv-x="1394" d="M133 1212q0 192 61.5 275.5t206.5 83.5q135 0 199 -82t64 -277q0 -191 -64 -273.5t-199 -82.5q-140 0 -204 82.5t-64 273.5zM186 1214q0 -121 24 -190t69 -96t122 -27q74 0 118.5 27t67.5 96t23 190q0 179 -48.5 246.5t-160.5 67.5q-115 0 -165 -67.5t-50 -246.5zM279 18 l757 1530l47 -20l-757 -1530zM731 344q0 192 61.5 276.5t206.5 84.5q135 0 199 -82.5t64 -278.5q0 -191 -64 -273.5t-199 -82.5q-140 0 -204 82.5t-64 273.5zM784 344q0 -177 50.5 -244t164.5 -67q111 0 160 67.5t49 243.5q0 178 -48.5 245.5t-160.5 67.5 q-114 0 -164.5 -67.5t-50.5 -245.5z" />
<glyph unicode="&#x26;" horiz-adv-x="1366" d="M139 354q0 67 17.5 130t44.5 113t69.5 100.5t83.5 88.5t95 82q-144 226 -144 377q0 141 80.5 228.5t235.5 87.5q140 0 210 -64.5t70 -171.5q0 -109 -80 -209q-21 -27 -46 -53t-60.5 -56.5t-56.5 -47t-69 -54t-63 -49.5q162 -243 447 -522q64 98 106 208t56 208h53 q-10 -96 -54 -221t-116 -238q170 -157 319 -266l-22 -45q-164 115 -330 264q-195 -269 -467 -269q-99 0 -173.5 29.5t-118.5 82.5t-65.5 120t-21.5 147zM201 352q0 -148 90.5 -234.5t234.5 -86.5q222 0 414 256q-286 270 -459 530q-63 -51 -108.5 -96.5t-87 -103t-63 -124.5 t-21.5 -141zM365 1245q0 -131 131 -340q10 7 40 30.5t41.5 32t37.5 29.5t39 32t34 29.5t34 32t28.5 30t27.5 32.5q66 85 66 172q0 86 -59.5 136t-166.5 50q-110 0 -181.5 -71.5t-71.5 -194.5z" />
<glyph unicode="'" horiz-adv-x="378" d="M147 1585h84l-26 -414h-43z" />
<glyph unicode="(" horiz-adv-x="622" d="M229 696q0 289 80.5 517.5t235.5 435.5l73 -2q-331 -431 -331 -951q0 -281 86 -513t241 -439l-69 -2q-146 178 -231 425t-85 529z" />
<glyph unicode=")" horiz-adv-x="622" d="M6 1647l72 2q156 -205 235.5 -434t79.5 -519q0 -282 -84.5 -529t-230.5 -425l-70 2q155 208 241.5 440t86.5 512q0 517 -330 951z" />
<glyph unicode="*" horiz-adv-x="698" d="M72 1415l16 43l238 -69v249h47v-249l235 69l19 -43l-240 -67l158 -207l-39 -31l-156 213l-160 -213l-38 31l159 207z" />
<glyph unicode="+" horiz-adv-x="1212" d="M172 676v53h399v418h58v-418h411v-53h-411v-408h-58v408h-399z" />
<glyph unicode="," horiz-adv-x="479" d="M172 41q0 68 66 68q71 0 71 -68q-1 -33 -38 -140.5t-72 -183.5l-25 4l53 261q-25 1 -40 18t-15 41z" />
<glyph unicode="-" horiz-adv-x="862" d="M184 672v47h496v-47h-496z" />
<glyph unicode="." horiz-adv-x="479" d="M172 45q0 66 68 66q67 0 67 -66q0 -65 -67 -65q-68 0 -68 65z" />
<glyph unicode="/" horiz-adv-x="858" d="M61 -270l711 1919h55l-710 -1919h-56z" />
<glyph unicode="0" d="M150 772q0 295 54.5 466t167 244.5t304.5 73.5q189 0 301 -73.5t166.5 -245t54.5 -465.5q0 -295 -54.5 -469t-167 -250t-300.5 -76q-191 0 -304 76t-167.5 249.5t-54.5 469.5zM211 772q0 -215 27.5 -358t87 -226.5t143.5 -118t207 -34.5t205.5 34t141.5 117.5t85.5 226.5 t26.5 359q0 214 -26.5 355.5t-85.5 224t-141.5 116t-205.5 33.5q-99 0 -170.5 -21t-129.5 -70.5t-93 -133.5t-53.5 -208.5t-18.5 -295.5z" />
<glyph unicode="1" d="M344 1241l416 303h37v-1489h309v-55h-698v55h323v1231l4 166l-4 2l-133 -98l-244 -174z" />
<glyph unicode="2" d="M201 0v45q46 42 126 115t128 117t120.5 112.5t117.5 114.5t104 110t95.5 112t76 107.5t61 110t35.5 105.5t14 106q0 149 -103 244.5t-312 95.5q-118 0 -229.5 -46t-192.5 -122l-27 49q84 78 203 127t248 49q227 0 352 -102.5t125 -290.5q0 -74 -22.5 -151t-59.5 -148 t-100 -152.5t-127.5 -152t-159.5 -159t-178.5 -161.5t-200.5 -172v-6h868l-4 -57h-958z" />
<glyph unicode="3" d="M193 115l20 53q182 -131 434 -131q232 0 348.5 116.5t116.5 307.5q0 188 -134.5 267t-438.5 79v51q528 0 528 338q0 150 -108 224.5t-297 74.5q-235 0 -424 -164l-27 45q79 77 196 126.5t257 49.5q219 0 339.5 -90t120.5 -262q0 -300 -342 -360v-6q196 -26 294 -115 t98 -262q0 -218 -132.5 -345.5t-394.5 -127.5q-149 0 -256 35t-198 96z" />
<glyph unicode="4" d="M176 424l723 1112h86v-1096h229l-4 -55h-225v-385h-61v385h-742zM252 446l2 -6h672l4 881l4 166l-4 2l-88 -141l-500 -770z" />
<glyph unicode="5" d="M221 115l19 57q189 -135 401 -135q442 0 442 475q0 204 -101.5 297.5t-319.5 93.5q-117 0 -224 -29.5t-182 -76.5l-35 22l62 717h796l2 -57h-749l-41 -453l-19 -164l4 -4q78 49 184.5 74.5t207.5 25.5q243 0 360 -108.5t117 -331.5q0 -267 -126.5 -400.5t-373.5 -133.5 t-424 131z" />
<glyph unicode="6" d="M168 709q0 436 151.5 639.5t450.5 203.5q167 0 320 -63l-11 -55q-141 59 -303 59q-266 0 -405 -177t-146 -554l6 -4q89 94 213 145t252 51q247 0 359 -106.5t112 -331.5q0 -261 -122.5 -396.5t-370.5 -135.5q-128 0 -219 36.5t-157 120.5t-98 224.5t-32 343.5zM231 694 q6 -353 110.5 -505t334.5 -152q212 0 320 122t108 357q0 201 -100.5 294t-315.5 93q-123 0 -251 -57t-206 -152z" />
<glyph unicode="7" d="M176 1479l4 57h1020v-49l-725 -1487h-76l738 1479h-961z" />
<glyph unicode="8" d="M166 395q0 297 366 426v6q-69 22 -120 49.5t-95 69t-67 101.5t-23 137q0 178 107.5 272t341.5 94q227 0 336.5 -90t109.5 -276q0 -134 -80 -231.5t-235 -151.5v-6q66 -19 116.5 -39t101.5 -53t84 -73.5t54 -100t21 -132.5q0 -413 -508 -413q-264 0 -387 100.5t-123 310.5 zM227 395q0 -179 105.5 -268.5t345.5 -89.5q209 0 325.5 89.5t116.5 270.5q0 42 -8.5 79t-22 66t-37 55t-46 44.5t-57 37t-62.5 30t-70 26t-71.5 23t-75.5 21.5t-74 22q-84 -33 -146 -69t-115 -84t-80.5 -112t-27.5 -141zM287 1182q0 -69 26.5 -123.5t59.5 -87.5t101 -64 t111 -45t131 -38q17 -5 25 -7q171 64 247.5 151t76.5 212q0 160 -95.5 239.5t-293.5 79.5q-389 0 -389 -317z" />
<glyph unicode="9" d="M164 1110q0 211 119.5 326.5t359.5 115.5q250 0 386 -173.5t136 -516.5q0 -316 -65 -511.5t-188.5 -281t-317.5 -85.5q-178 0 -324 67l11 51q149 -63 307 -63q174 0 286.5 79.5t172.5 257t65 462.5l-4 2q-177 -174 -446 -174q-254 0 -376 116t-122 328zM225 1110 q0 -186 109.5 -289.5t329.5 -103.5q286 0 442 180q-6 307 -127 454.5t-336 147.5q-206 0 -312 -100t-106 -289z" />
<glyph unicode=":" horiz-adv-x="479" d="M172 45q0 66 68 66q67 0 67 -66q0 -65 -67 -65q-68 0 -68 65zM172 1083q0 66 68 66q67 0 67 -66q0 -65 -67 -65q-68 0 -68 65z" />
<glyph unicode=";" horiz-adv-x="491" d="M172 41q0 68 66 68q71 0 71 -68q-1 -33 -38 -140.5t-72 -183.5l-25 4l53 261q-25 1 -40 18t-15 41zM184 1083q0 66 68 66q67 0 67 -66q0 -65 -67 -65q-68 0 -68 65z" />
<glyph unicode="&#x3c;" horiz-adv-x="1212" d="M195 686v29l825 434v-62l-588 -309l-147 -71v-7l149 -71l586 -293v-64z" />
<glyph unicode="=" horiz-adv-x="1212" d="M162 516v53h889v-53h-889zM162 838v53h889v-53h-889z" />
<glyph unicode="&#x3e;" horiz-adv-x="1212" d="M195 272v64l581 291l152 71v7l-150 73l-583 309v62l825 -434v-29z" />
<glyph unicode="?" horiz-adv-x="1062" d="M100 1378q80 85 194.5 136t252.5 51q391 0 391 -340q0 -167 -98 -291.5t-297 -241.5l-6 -323h-52l-8 350q82 54 139 97t109 92.5t82.5 96.5t48.5 102.5t18 117.5q0 286 -327 286q-225 0 -418 -174zM446 41q0 63 70 63q68 0 68 -63q0 -61 -68 -61q-70 0 -70 61z" />
<glyph unicode="@" horiz-adv-x="1701" d="M131 688q0 143 30 275t93 246t152 198t214 132t273 48q208 0 362.5 -97t235 -269.5t80.5 -397.5q0 -269 -94 -408t-254 -139q-84 0 -137.5 47t-63.5 140l-6 2q-44 -88 -115.5 -138.5t-152.5 -50.5q-113 0 -177.5 76.5t-64.5 231.5q0 137 53 259.5t146 197.5t202 75 q133 0 185 -98h6l24 82l45 -4l-92 -514q-8 -54 -8 -76q0 -84 43 -131t125 -47q131 0 208 128.5t77 366.5q0 207 -71.5 367t-215.5 254t-342 94q-135 0 -250.5 -45.5t-198.5 -125.5t-142 -188t-87.5 -232.5t-28.5 -258.5q0 -140 26.5 -264t82.5 -230t138 -182.5t199.5 -120 t260.5 -43.5q378 0 571 201l25 -43q-112 -99 -254 -153t-340 -54q-150 0 -274.5 43.5t-214 123t-151.5 190t-92 244.5t-30 288zM567 584q0 -127 52 -189.5t141 -62.5q92 0 164.5 79t91.5 197l65 357q-50 98 -176 98q-90 0 -168.5 -67t-124 -177.5t-45.5 -234.5z" />
<glyph unicode="A" horiz-adv-x="1404" d="M63 0l603 1536h79l596 -1536h-77l-170 446h-785l-170 -446h-76zM332 504h741l-311 815l-53 158h-7l-57 -158z" />
<glyph unicode="B" horiz-adv-x="1396" d="M254 0v1536h502q204 0 304.5 -89t100.5 -282q0 -155 -66.5 -240.5t-176.5 -105.5v-6q311 -55 311 -389q0 -210 -102 -317t-332 -107h-541zM319 57h478q177 0 271.5 87.5t94.5 283.5q0 179 -93.5 265.5t-283.5 86.5h-467v-723zM319 836h457q158 0 240 81.5t82 239.5 q0 169 -84 245.5t-260 76.5h-435v-643z" />
<glyph unicode="C" horiz-adv-x="1261" d="M160 786q0 409 150.5 592t475.5 183q96 0 198.5 -23.5t162.5 -56.5l-14 -58q-67 34 -159 56t-186 22q-144 0 -245.5 -36.5t-173 -120t-106 -221.5t-34.5 -337q0 -212 34.5 -358t107.5 -233t175.5 -124.5t248.5 -37.5q182 0 344 86l16 -51q-70 -41 -169.5 -68t-197.5 -27 q-330 0 -479 193t-149 620z" />
<glyph unicode="D" horiz-adv-x="1521" d="M254 0v1536h477q224 0 361 -76.5t203.5 -244t66.5 -443.5q0 -279 -68.5 -449.5t-205 -246.5t-355.5 -76h-479zM322 61h409q144 0 244.5 34t173.5 114.5t108 219.5t35 343q0 265 -60.5 419.5t-181 219t-321.5 64.5h-407v-1414z" />
<glyph unicode="E" horiz-adv-x="1286" d="M254 0v1536h870l4 -59h-809v-639h707v-56h-707v-723h848l-4 -59h-909z" />
<glyph unicode="F" horiz-adv-x="1218" d="M254 0v1536h870l4 -61h-806v-641h679v-58h-679v-776h-68z" />
<glyph unicode="G" horiz-adv-x="1402" d="M160 760q0 292 71.5 468.5t212.5 254.5t369 78q104 0 209 -22t180 -58l-12 -58q-180 80 -375 80q-150 0 -255.5 -36t-181.5 -121t-112.5 -229.5t-36.5 -356.5q0 -265 61 -424t187 -231t334 -72q216 0 371 76v692h61v-735q-173 -93 -432 -93q-169 0 -289 42t-202 135.5 t-121 244t-39 365.5z" />
<glyph unicode="H" horiz-adv-x="1564" d="M254 0v1536h68v-698h923v698h68v-1536h-68v780h-923v-780h-68z" />
<glyph unicode="I" horiz-adv-x="632" d="M283 0v1536h67v-1536h-67z" />
<glyph unicode="J" horiz-adv-x="1124" d="M86 78l14 59q118 -106 301 -106q191 0 296.5 110t105.5 322v1073h67v-1073q0 -231 -122 -360.5t-347 -129.5q-195 0 -315 105z" />
<glyph unicode="K" horiz-adv-x="1404" d="M254 0v1536h68v-696h276l590 696h96l-614 -723l651 -813h-100l-619 780h-280v-780h-68z" />
<glyph unicode="L" horiz-adv-x="1185" d="M254 0v1536h65v-1475h803l-4 -61h-864z" />
<glyph unicode="M" horiz-adv-x="1859" d="M254 0v1536h88l526 -1303l60 -153h6l57 153l529 1303h86v-1536h-60v1284l4 166l-6 2l-59 -156l-524 -1296h-64l-522 1282l-60 156l-4 -2l2 -166v-1270h-59z" />
<glyph unicode="N" horiz-adv-x="1574" d="M254 0v1536h82l835 -1290l91 -140l4 3l-4 163v1262h59v-1534h-53l-860 1317l-89 141l-4 -2l2 -166v-1290h-63z" />
<glyph unicode="O" horiz-adv-x="1503" d="M160 768q0 292 58.5 464t187.5 250.5t348 78.5q165 0 275.5 -42t181.5 -138.5t101.5 -244.5t30.5 -368t-30.5 -368.5t-101.5 -245t-181.5 -139t-275.5 -42.5q-219 0 -348 79t-187.5 251t-58.5 465zM229 768q0 -212 29 -352.5t94.5 -226t161.5 -121t240 -35.5 q192 0 303 66.5t165 226.5t54 442q0 214 -28.5 354t-93.5 225t-160.5 119.5t-239.5 34.5t-240 -34.5t-161.5 -119.5t-94.5 -225.5t-29 -353.5z" />
<glyph unicode="P" horiz-adv-x="1310" d="M254 0v1536h469q245 0 357 -101t112 -329t-112 -334t-357 -106h-401v-666h-68zM322 723h401q205 0 303 87t98 296q0 199 -98 286t-303 87h-401v-756z" />
<glyph unicode="Q" horiz-adv-x="1503" d="M160 768q0 292 58.5 464t187.5 250.5t348 78.5q165 0 275.5 -42t181.5 -138.5t101.5 -244.5t30.5 -368q0 -419 -122 -599t-418 -189l-2 -5l401 -272l-127 -20l-364 292q-300 10 -425.5 191.5t-125.5 601.5zM229 768q0 -212 29 -352.5t94.5 -226t161.5 -121t240 -35.5 q192 0 303 66.5t165 226.5t54 442q0 214 -28.5 354t-93.5 225t-160.5 119.5t-239.5 34.5t-240 -34.5t-161.5 -119.5t-94.5 -225.5t-29 -353.5z" />
<glyph unicode="R" horiz-adv-x="1316" d="M254 0v1536h477q212 0 311 -97t99 -296q0 -376 -353 -398l453 -745h-86l-436 735h-397v-735h-68zM322 791h393q186 0 273 84.5t87 267.5q0 177 -83.5 256.5t-262.5 79.5h-407v-688z" />
<glyph unicode="S" horiz-adv-x="1144" d="M131 94l16 58q179 -119 410 -119q197 0 303.5 99t106.5 276q0 76 -28 134.5t-75 96.5t-108.5 67.5t-129.5 52.5t-135.5 46.5t-129 55t-108.5 71.5t-75 102.5t-28 143.5q0 172 114.5 277.5t337.5 105.5q222 0 381 -86l-18 -54q-182 82 -361 82q-99 0 -175.5 -26 t-122 -71.5t-68.5 -102.5t-23 -123q0 -71 28 -126t75 -90t108.5 -62.5t129.5 -50.5t135.5 -46.5t129 -56.5t108.5 -75.5t75 -109t28 -151.5q0 -209 -121.5 -324t-355.5 -115q-243 0 -424 121z" />
<glyph unicode="T" horiz-adv-x="1163" d="M43 1475l2 61h1073l2 -61h-506v-1475h-67v1475h-504z" />
<glyph unicode="U" horiz-adv-x="1527" d="M215 557v979h68v-981q0 -268 119.5 -394t361.5 -126t361.5 127t119.5 393v981h68v-979q0 -306 -141.5 -445t-407.5 -139q-267 0 -408 139t-141 445z" />
<glyph unicode="V" horiz-adv-x="1380" d="M76 1536h78l479 -1311l55 -155h6l54 155l483 1311h74l-572 -1536h-86z" />
<glyph unicode="W" horiz-adv-x="2013" d="M147 1536h70l318 -1315l36 -162h7l38 160l349 1317h86l348 -1315l41 -160h6l35 162l315 1313h68l-379 -1536h-92l-346 1307l-37 161h-6l-39 -161l-347 -1307h-90z" />
<glyph unicode="X" horiz-adv-x="1396" d="M117 0l524 799l-502 737h88l467 -696l459 696h84l-492 -739l535 -797h-84l-504 754l-489 -754h-86z" />
<glyph unicode="Y" horiz-adv-x="1314" d="M76 1536h84l420 -764l77 -145h7l75 145l420 764h80l-545 -979v-557h-69v557z" />
<glyph unicode="Z" horiz-adv-x="1261" d="M125 0v43l831 1296l91 134l-3 4h-890l6 59h964v-51l-825 -1288l-90 -131l2 -7h915l-6 -59h-995z" />
<glyph unicode="[" horiz-adv-x="614" d="M229 -254v1903h377v-54h-317v-1798h319v-51h-379z" />
<glyph unicode="\" horiz-adv-x="802" d="M66 1649h53l635 -1919h-56z" />
<glyph unicode="]" horiz-adv-x="614" d="M6 -203h322v1798h-322v54h379v-1903h-379v51z" />
<glyph unicode="^" d="M164 946l485 703h51l482 -703h-64l-444 641l-441 -641h-69z" />
<glyph unicode="_" horiz-adv-x="905" d="M80 -109h756v-51h-756v51z" />
<glyph unicode="`" horiz-adv-x="802" d="M266 1659h96l158 -289h-57z" />
<glyph unicode="a" horiz-adv-x="1157" d="M147 348q0 350 435 350q180 0 323 -63v182q0 101 -20 168.5t-63 107.5t-103.5 57t-147.5 17q-197 0 -344 -82l-10 56q168 80 363 80q205 0 296 -94t91 -318v-809h-47l-7 195l-6 2q-42 -94 -151 -154.5t-244 -60.5q-170 0 -267.5 87.5t-97.5 278.5zM209 348 q0 -315 319 -315q145 0 261 87t116 187v277q-30 23 -118 44t-199 21q-379 0 -379 -301z" />
<glyph unicode="b" horiz-adv-x="1282" d="M229 0v1645l62 6v-445l-2 -164l4 -2q63 86 166 132.5t229 46.5q110 0 192 -31t144 -101.5t93.5 -192.5t31.5 -296q0 -171 -30.5 -292t-91.5 -192.5t-145.5 -104t-199.5 -32.5q-126 0 -230 47t-161 136l-6 -2l-17 -158h-39zM291 227q49 -84 150.5 -142t238.5 -58 q75 0 134 16t111 56t86.5 104t54 163.5t19.5 231.5q0 163 -27 274.5t-82 174.5t-127 89.5t-173 26.5q-123 0 -223.5 -51t-161.5 -143v-742z" />
<glyph unicode="c" horiz-adv-x="1032" d="M131 618q0 309 115 452.5t362 143.5q163 0 301 -69l-8 -58q-138 74 -285 74q-222 0 -321.5 -129t-99.5 -414q0 -216 48.5 -347.5t138.5 -186.5t232 -55q179 0 295 96l11 -55q-58 -43 -141.5 -70t-172.5 -27q-244 0 -359.5 151t-115.5 494z" />
<glyph unicode="d" horiz-adv-x="1271" d="M131 596q0 318 110.5 468t358.5 150q124 0 226 -45t165 -133l4 2l-4 164v438l62 9v-1649h-45l-15 156l-6 2q-115 -183 -391 -183q-251 0 -358 147.5t-107 473.5zM195 594q0 -305 93 -437t320 -132q81 0 149 18.5t113 50.5t73.5 63.5t47.5 67.5v742q-51 90 -152 142 t-229 52q-223 0 -319 -134t-96 -433z" />
<glyph unicode="e" horiz-adv-x="1165" d="M131 647q0 281 117 425.5t344 144.5q99 0 179 -31.5t140.5 -96.5t93.5 -172.5t33 -250.5q0 -21 -2 -29h-841q2 -227 50.5 -360t145 -189.5t256.5 -56.5q175 0 336 96l8 -53q-160 -99 -348 -99q-277 0 -394.5 155.5t-117.5 516.5zM193 680h786q-3 250 -106.5 366.5 t-280.5 116.5q-196 0 -293 -122t-106 -361z" />
<glyph unicode="f" horiz-adv-x="825" d="M90 1149v47h209v61q0 369 373 369q83 0 157 -24l-6 -43q-72 20 -151 20q-158 0 -235 -83.5t-77 -238.5v-61h365v-47h-365v-1149h-61v1149h-209z" />
<glyph unicode="g" horiz-adv-x="1142" d="M152 10q0 75 39.5 145.5t113.5 120.5l-2 7q-54 12 -87.5 50t-33.5 95q0 54 42.5 96t111.5 60l2 4q-152 78 -152 286q0 174 91 257t294 83q193 0 291 -88l191 95l16 -29l-170 -109q59 -78 59 -209q0 -173 -87.5 -255t-299.5 -82q-100 0 -176 24q-74 -13 -113.5 -47 t-39.5 -80q0 -44 32 -73.5t97 -36.5l299 -33q147 -16 232 -52.5t117 -88t32 -130.5q0 -78 -23.5 -135.5t-76 -102t-144.5 -67t-223 -22.5q-222 0 -327 82.5t-105 234.5zM213 14q0 -270 369 -270q117 0 198.5 19.5t125.5 57t62.5 84.5t18.5 111t-25.5 104t-97.5 69t-202 44 l-295 35q-74 -48 -114 -116t-40 -138zM248 872q0 -68 16.5 -118.5t44 -81.5t69.5 -50.5t88 -26.5t105 -7q179 0 252.5 70.5t73.5 213.5q0 159 -77 225t-249 66q-173 0 -248 -72t-75 -219z" />
<glyph unicode="h" horiz-adv-x="1265" d="M229 0v1640l62 9v-445l-2 -164l4 -2q58 81 157.5 130t221.5 49q199 0 301 -99t102 -291v-827h-61v827q0 160 -89 246t-266 86q-121 0 -221.5 -55t-146.5 -137v-967h-62z" />
<glyph unicode="i" horiz-adv-x="622" d="M244 1554q0 31 18.5 49.5t50.5 18.5q31 0 48.5 -18t17.5 -50q0 -65 -66 -65q-35 0 -52 14.5t-17 50.5zM281 0v1192l61 6v-1198h-61z" />
<glyph unicode="j" horiz-adv-x="616" d="M-2 -285l8 49q48 -20 94 -20q81 0 127.5 49.5t46.5 155.5v1243l62 6v-1251q0 -254 -225 -254q-56 0 -113 22zM236 1561q0 65 69 65q32 0 50 -17t18 -48q0 -68 -68 -68q-36 0 -52.5 15t-16.5 53z" />
<glyph unicode="k" horiz-adv-x="1144" d="M229 0v1642l62 7v-973h203l489 522h82l-520 -547l545 -651h-82l-514 623h-203v-623h-62z" />
<glyph unicode="l" horiz-adv-x="600" d="M270 0v1642l62 7v-1649h-62z" />
<glyph unicode="m" horiz-adv-x="1853" d="M215 0v1196l45 4l12 -160h7q46 78 134 124t191 46q273 0 336 -221h6q33 106 123.5 164.5t216.5 58.5q175 0 276 -95t101 -286v-831h-61v831q0 164 -85.5 245t-240.5 81q-126 0 -215.5 -77t-89.5 -214v-866h-62v866q0 149 -84.5 220t-218.5 71q-97 0 -190.5 -51.5 t-139.5 -136.5v-969h-61z" />
<glyph unicode="n" horiz-adv-x="1253" d="M215 0v1196l45 4l10 -162h6q57 81 160 128.5t219 47.5q197 0 302.5 -95.5t105.5 -291.5v-827h-62v825q0 334 -358 334q-103 0 -208.5 -51t-158.5 -139v-969h-61z" />
<glyph unicode="o" horiz-adv-x="1236" d="M131 596q0 330 118 474t374 144q257 0 370 -143t113 -475q0 -336 -113 -479.5t-370 -143.5q-258 0 -375 144.5t-117 478.5zM195 596q0 -304 99.5 -436.5t328.5 -132.5q225 0 322 132t97 437q0 303 -97 435t-322 132q-228 0 -328 -133t-100 -434z" />
<glyph unicode="p" horiz-adv-x="1267" d="M219 -289v1481l45 4l15 -152h6q62 82 163.5 127.5t227.5 45.5q114 0 196.5 -30.5t143.5 -101t91 -191t30 -294.5q0 -172 -32 -294t-95 -194t-148 -104.5t-200 -32.5q-260 0 -379 179l-4 -2l2 -166v-275h-62zM281 229q49 -87 145 -144.5t229 -57.5q76 0 136.5 16t114.5 56 t90 104t56.5 163.5t20.5 231.5q0 161 -27 272t-81 173.5t-125 89t-170 26.5q-259 0 -389 -192v-738z" />
<glyph unicode="q" horiz-adv-x="1267" d="M131 600q0 168 31 287.5t92.5 191.5t148 105t203.5 33q122 0 223.5 -49t159.5 -140h6l11 164h38v-1481l-61 -4v287l4 166l-4 2q-60 -86 -159.5 -133t-221.5 -47q-113 0 -197.5 32t-147 103.5t-94.5 192t-32 290.5zM195 600q0 -157 25.5 -266t78.5 -174t128 -94t181 -29 q159 0 263.5 72.5t111.5 156.5v688q-37 85 -141.5 145t-231.5 60q-220 0 -317.5 -127.5t-97.5 -431.5z" />
<glyph unicode="r" horiz-adv-x="880" d="M215 0v1190l51 6l2 -178v-166h4q46 159 155 258.5t257 99.5q54 0 107 -12l-7 -57q-42 12 -104 12q-81 0 -154.5 -39t-129 -108t-88 -171.5t-32.5 -222.5v-612h-61z" />
<glyph unicode="s" horiz-adv-x="999" d="M139 96l15 56q64 -59 156 -92t190 -33q164 0 244.5 78t80.5 210q0 66 -29 116.5t-76.5 80.5t-108 56.5t-124 45t-124 45.5t-108 58.5t-76.5 84.5t-29 122q0 140 98.5 216.5t279.5 76.5q171 0 308 -70l-9 -53q-151 71 -301 71q-144 0 -229.5 -64.5t-85.5 -172.5 q0 -55 23 -97t62 -69.5t89.5 -49t106 -39.5t111 -37t106 -45.5t89.5 -61t62 -88.5t23 -122q0 -161 -95 -252.5t-286 -91.5q-107 0 -204 31.5t-159 89.5z" />
<glyph unicode="t" horiz-adv-x="780" d="M90 1147v49h205l14 332l49 8v-340h330v-49h-330v-887q0 -227 213 -227q65 0 103 18l8 -47q-46 -22 -125 -22q-129 0 -195.5 66.5t-66.5 209.5v889h-205z" />
<glyph unicode="u" horiz-adv-x="1228" d="M190 358v838h62v-836q0 -160 92 -244.5t270 -84.5q177 0 270 84.5t93 244.5v836h61v-838q0 -181 -106.5 -282t-317.5 -101t-317.5 101t-106.5 282z" />
<glyph unicode="v" horiz-adv-x="1275" d="M104 1196h74l400 -983l59 -154h6l57 154l398 983h73l-493 -1196h-78z" />
<glyph unicode="w" horiz-adv-x="1746" d="M147 1196h68l252 -985l39 -160h6l41 160l289 985h73l283 -991l43 -160h6l37 162l250 989h63l-311 -1196h-86l-276 975l-41 162h-6l-43 -162l-285 -975h-78z" />
<glyph unicode="x" horiz-adv-x="1185" d="M121 0l428 608l-416 588h80l379 -547l375 547h80l-412 -586l428 -610h-84l-389 569l-389 -569h-80z" />
<glyph unicode="y" horiz-adv-x="1273" d="M104 1196h78l428 -999l64 -154h6l53 156l365 997h71l-471 -1264q-58 -134 -127.5 -187.5t-167.5 -53.5q-89 0 -163 41l12 51q63 -39 143 -39t135 43.5t103 155.5l10 28z" />
<glyph unicode="z" horiz-adv-x="1118" d="M164 0v39l635 967l92 133l-2 4h-699l5 53h768v-43l-633 -963l-92 -131l2 -6h727l-2 -53h-801z" />
<glyph unicode="{" horiz-adv-x="722" d="M229 682v41q85 6 133 53.5t48 122.5q0 101 -21.5 262t-21.5 264q0 112 70.5 169t228.5 57h51v-54h-53q-129 0 -180.5 -42.5t-51.5 -133.5q0 -103 18.5 -260.5t18.5 -257.5q0 -76 -36 -128.5t-105 -69.5v-7q68 -17 104.5 -69.5t36.5 -124.5q0 -101 -18.5 -259.5 t-18.5 -260.5q0 -92 51.5 -135.5t180.5 -43.5h53v-53h-51q-158 0 -228.5 56.5t-70.5 168.5q0 103 21.5 265t21.5 262q0 75 -48 123.5t-133 54.5z" />
<glyph unicode="|" horiz-adv-x="555" d="M252 -362v2039h51v-2039h-51z" />
<glyph unicode="}" horiz-adv-x="722" d="M6 -195h53q129 0 181.5 43.5t52.5 135.5q0 101 -19.5 259.5t-19.5 260.5q0 72 36 124.5t107 69.5v7q-71 17 -107 69.5t-36 128.5q0 100 19.5 257.5t19.5 260.5q0 91 -52.5 133.5t-181.5 42.5h-53v54h51q158 0 227.5 -56.5t69.5 -169.5q0 -103 -21.5 -264t-21.5 -262 q0 -74 49 -122t136 -54v-41q-86 -6 -135.5 -54.5t-49.5 -123.5q0 -100 21.5 -262t21.5 -265q0 -113 -69.5 -169t-227.5 -56h-51v53z" />
<glyph unicode="~" d="M240 1360q24 99 79 149t148 50q49 0 107.5 -24.5t103 -54.5t100 -54.5t99.5 -24.5q75 0 113.5 31.5t66.5 105.5h49q-49 -197 -229 -197q-48 0 -106 24.5t-102.5 53.5t-100 53.5t-99.5 24.5q-71 0 -111.5 -33t-66.5 -104h-51z" />
<glyph unicode="&#xa1;" horiz-adv-x="620" d="M242 1325q0 59 67 59q68 0 68 -59q0 -63 -68 -63q-67 0 -67 63zM274 -279l15 1278h49l10 -1278h-74z" />
<glyph unicode="&#xa2;" horiz-adv-x="1036" d="M135 618q0 304 112 447.5t351 148.5l16 287h58l-17 -289q138 -9 258 -67l-8 -58q-138 74 -284 74q-222 0 -322 -129t-100 -414q0 -216 48.5 -347.5t138.5 -186.5t232 -55q179 0 295 96l11 -55q-54 -41 -131.5 -67.5t-161.5 -29.5l-10 -307h-58l10 309 q-225 9 -331.5 160.5t-106.5 482.5z" />
<glyph unicode="&#xa3;" horiz-adv-x="1337" d="M147 41q105 48 159 158t54 254q0 151 -32 297h-123l-4 55h112q-4 15 -16 62.5t-16.5 68t-11.5 58.5t-10 71.5t-3 69.5q0 71 16 131.5t53 114t93.5 91t142 59t193.5 21.5q107 0 210 -25.5t179 -68.5l-15 -53q-69 40 -169.5 66t-202.5 26q-113 0 -198.5 -27.5t-136 -76.5 t-75 -112.5t-24.5 -141.5q0 -27 2.5 -58t5 -50.5t10.5 -59t10.5 -51t14 -60.5t12.5 -55h581v-55h-569q35 -171 35 -295q0 -140 -44.5 -242.5t-123.5 -161.5l2 -4q178 27 490 27q186 0 487 -27q-1 -2 -3.5 -28t-4.5 -29q-345 30 -502 30q-253 0 -575 -30z" />
<glyph unicode="&#xa4;" horiz-adv-x="1134" d="M176 387l135 133q-78 91 -78 213t78 213l-133 133l39 39l133 -133q93 80 215 80q123 0 215 -82l140 135l38 -37l-139 -139q76 -92 76 -209q0 -119 -74 -209l135 -135l-38 -39l-136 133q-89 -80 -217 -80q-123 0 -217 78l-133 -133zM287 735q0 -117 80 -196.5t196 -79.5 q118 0 198.5 79.5t80.5 196.5q0 116 -80.5 196.5t-198.5 80.5q-115 0 -195.5 -80.5t-80.5 -196.5z" />
<glyph unicode="&#xa5;" horiz-adv-x="1490" d="M180 1536h82l406 -719l77 -145h7l75 145l404 719h76l-506 -897h258v-53h-275v-127h277v-53h-277v-406h-67v406h-289v53h289v127h-289v53h272l5 6l-87 135z" />
<glyph unicode="&#xa6;" horiz-adv-x="555" d="M252 -358v931h51v-931h-51zM252 768v909h51v-909h-51z" />
<glyph unicode="&#xa7;" horiz-adv-x="1134" d="M168 768q0 60 21 113.5t75.5 103.5t138.5 78l3 4q-100 56 -154.5 120.5t-54.5 149.5q0 136 106 215.5t299 79.5q102 0 202.5 -28t168.5 -80l-17 -51q-145 108 -354 108q-165 0 -252.5 -64.5t-87.5 -175.5q0 -56 33 -105t87.5 -85.5t124 -75t141.5 -72t141.5 -78.5 t124 -93t87.5 -116t33 -147q0 -95 -58.5 -175t-180.5 -120v-6q99 -58 152.5 -122.5t53.5 -147.5q0 -136 -104 -214.5t-297 -78.5q-103 0 -202.5 28.5t-168.5 80.5l15 51q146 -109 354 -109q167 0 253.5 63.5t86.5 176.5q0 64 -42.5 118.5t-110.5 96t-150 82.5t-164 86.5 t-150 97.5t-110.5 127t-42.5 164zM229 770q0 -60 26 -114.5t64 -93.5t98.5 -80t112.5 -68.5t125 -66.5t117 -66l2 4l-29 24q115 34 170.5 101.5t55.5 154.5q0 60 -25.5 114t-62.5 92.5t-97 80t-111 69t-123.5 66.5t-115.5 66l-4 -6l23 -19q-114 -34 -170 -102t-56 -156z" />
<glyph unicode="&#xa8;" horiz-adv-x="802" d="M213 1563q0 27 13.5 42t37.5 15q51 0 51 -57q0 -58 -51 -58t-51 58zM496 1563q0 57 53 57q49 0 49 -57q0 -58 -49 -58q-53 0 -53 58z" />
<glyph unicode="&#xa9;" horiz-adv-x="1925" d="M158 780q0 218 107.5 402.5t293 292.5t404.5 108q164 0 313 -64t257 -171.5t172 -256t64 -311.5q0 -164 -64 -314t-172 -258.5t-257 -172.5t-313 -64q-110 0 -214.5 29t-192.5 81.5t-162.5 127t-126 163.5t-80.5 193.5t-29 214.5zM205 782q0 -152 59 -293t159 -245.5 t241.5 -167t298.5 -62.5q155 0 296.5 61t243.5 163.5t162.5 245t60.5 298.5q0 153 -60.5 292.5t-162.5 241t-243.5 162t-296.5 60.5q-157 0 -298 -60.5t-241.5 -162t-159.5 -241t-59 -292.5zM459 780q0 106 35 200.5t100 167t166 115t225 42.5q86 0 165.5 -23.5t127.5 -56.5 l-10 -49q-52 32 -127 51.5t-144 19.5q-220 0 -346.5 -130t-126.5 -337q0 -211 130 -345t345 -134q159 0 304 94q7 -23 10 -47q-64 -48 -149.5 -78t-174.5 -30q-236 0 -383 149.5t-147 390.5z" />
<glyph unicode="&#xaa;" horiz-adv-x="806" d="M131 1094q0 116 70 176.5t209 60.5q120 0 196 -43v117q0 123 -48 170t-157 47q-122 0 -217 -49l-6 49q108 51 232 51q135 0 193.5 -62.5t58.5 -211.5v-541h-46l-6 117l-6 2q-39 -61 -100.5 -95t-136.5 -34q-110 0 -173 59t-63 187zM188 1094q0 -106 51 -150.5t142 -44.5 q89 0 157 55t68 117v174q-18 14 -69.5 26.5t-116.5 12.5q-232 0 -232 -190z" />
<glyph unicode="&#xab;" horiz-adv-x="1220" d="M66 676v12l546 342v-59l-469 -291l469 -289v-57zM434 676v12l547 342v-59l-469 -291l469 -289v-57z" />
<glyph unicode="&#xac;" d="M264 672v63h819v-393h-59v330h-760z" />
<glyph unicode="&#xad;" horiz-adv-x="862" d="M184 672v47h496v-47h-496z" />
<glyph unicode="&#xae;" horiz-adv-x="935" d="M129 1376q0 142 100 242t240 100t239 -100t99 -242q0 -138 -99.5 -238t-238.5 -100t-239.5 100t-100.5 238zM162 1378q0 -127 90.5 -217t218.5 -90q125 0 214 90t89 217q0 128 -89 218t-214 90q-128 0 -218.5 -89.5t-90.5 -218.5zM332 1184v405h168q73 0 105 -29.5 t32 -84.5q0 -41 -25 -72.5t-67 -38.5l108 -180h-49l-102 178h-129v-178h-41zM373 1397h141q40 0 62 21.5t22 56.5q0 41 -22.5 60t-73.5 19h-129v-157z" />
<glyph unicode="&#xaf;" horiz-adv-x="802" d="M158 1509v47h499v-47h-499z" />
<glyph unicode="&#xb0;" horiz-adv-x="739" d="M131 1430q0 99 69 170t171 71q98 0 167.5 -70.5t69.5 -170.5q0 -96 -70 -168t-167 -72q-99 0 -169.5 72t-70.5 168zM176 1430q0 -78 56.5 -135.5t138.5 -57.5q78 0 135 57t57 136q0 82 -56.5 139t-135.5 57q-84 0 -139.5 -58t-55.5 -138z" />
<glyph unicode="&#xb1;" d="M238 203v53h864v-53h-864zM242 725v57h397v408h59v-408h410v-57h-410v-373h-59v373h-397z" />
<glyph unicode="&#xb2;" horiz-adv-x="677" d="M96 1040v43q23 22 79 74.5t81.5 76t72 70t69 73t54 67.5t46 70.5t26 64.5t11.5 66q0 161 -199 161q-113 0 -215 -84l-21 47q116 89 246 89q121 0 187.5 -55.5t66.5 -153.5q0 -54 -22 -109.5t-55 -104t-91.5 -109t-112.5 -108.5t-137 -118v-6h428l-2 -54h-512z" />
<glyph unicode="&#xb3;" horiz-adv-x="677" d="M100 1096l21 47q92 -64 223 -64q112 0 168.5 54.5t56.5 144.5q0 95 -63 133.5t-215 38.5v49q135 0 196.5 41t61.5 121q0 72 -54.5 108.5t-144.5 36.5q-126 0 -219 -77l-20 40q42 38 105.5 63.5t135.5 25.5q120 0 187 -49t67 -144q0 -151 -166 -186v-4q93 -14 140 -60 t47 -133q0 -117 -71.5 -184.5t-211.5 -67.5q-76 0 -129 15t-115 51z" />
<glyph unicode="&#xb4;" horiz-adv-x="802" d="M348 1370l178 289h99l-219 -289h-58z" />
<glyph unicode="&#xb5;" horiz-adv-x="1253" d="M215 -297v1493h64l-3 -825q0 -162 105.5 -254t271.5 -92q153 0 249.5 78t96.5 219v874h64v-1196l-47 -6l-10 158l-7 2q-39 -87 -131.5 -133t-214.5 -46q-78 0 -148 19t-134.5 69t-96.5 127l-4 -2q8 -350 15 -477z" />
<glyph unicode="&#xb6;" horiz-adv-x="1280" d="M131 1311q0 101 71.5 163t207.5 62h741l-2 -55h-162v-1772h-61v1772h-463l2 -1772h-59v1366q-126 2 -200.5 64.5t-74.5 171.5z" />
<glyph unicode="&#xb7;" horiz-adv-x="552" d="M211 702q0 66 68 66q67 0 67 -66q0 -65 -67 -65q-68 0 -68 65z" />
<glyph unicode="&#xb8;" horiz-adv-x="802" d="M301 -395l113 383l49 2l-84 -385h-78z" />
<glyph unicode="&#xb9;" horiz-adv-x="528" d="M111 1686l215 167h43v-813h-60v562l6 161l-6 2l-192 -137z" />
<glyph unicode="&#xba;" horiz-adv-x="866" d="M121 1257q0 224 75 319t240 95q167 0 239.5 -94.5t72.5 -319.5t-73 -319t-239 -94t-240.5 94.5t-74.5 318.5zM180 1257q0 -197 58.5 -279.5t197.5 -82.5q137 0 196.5 82.5t59.5 279.5q0 199 -59 281t-197 82q-139 0 -197.5 -82t-58.5 -281z" />
<glyph unicode="&#xbb;" horiz-adv-x="1220" d="M190 334v57l472 289l-472 291v59l549 -342v-12zM559 334v57l471 289l-471 291v59l549 -342v-12z" />
<glyph unicode="&#xbc;" horiz-adv-x="1763" d="M297 1374l215 168h43v-813h-59v561l6 162l-6 2l-193 -137zM317 0l1047 1536h59l-1044 -1536h-62zM922 229l409 578h74v-567h111l-5 -47h-106v-193h-53v193h-424zM987 246l2 -6h363l2 350l6 166l-4 2l-96 -137l-177 -248z" />
<glyph unicode="&#xbd;" horiz-adv-x="1763" d="M297 1374l215 168h43v-813h-59v561l6 162l-6 2l-193 -137zM309 0l1047 1536h59l-1044 -1536h-62zM1053 0v43q23 22 79 74t81 76t71.5 70.5t69 73t54 67t46.5 70t26 64.5t11 66q0 162 -199 162q-113 0 -215 -84l-20 47q114 88 246 88q120 0 186.5 -55.5t66.5 -153.5 q0 -54 -21.5 -109.5t-55 -104.5t-91.5 -109t-112 -108.5t-137 -117.5v-6h428l-2 -53h-512z" />
<glyph unicode="&#xbe;" horiz-adv-x="1763" d="M154 784l20 47q91 -63 223 -63q112 0 169 55t57 144q0 95 -63.5 133.5t-215.5 38.5v49q135 0 196.5 41t61.5 121q0 72 -54.5 108.5t-144.5 36.5q-125 0 -219 -78l-20 41q41 38 105.5 63t136.5 25q120 0 186.5 -48.5t66.5 -143.5q0 -152 -165 -187v-4q93 -14 139.5 -59.5 t46.5 -132.5q0 -117 -71.5 -184.5t-211.5 -67.5q-76 0 -129 15t-114 50zM326 0l1046 1536h60l-1045 -1536h-61zM948 229l410 578h74v-567h110l-4 -47h-106v-193h-54v193h-424zM1014 246l2 -6h362l2 350l6 166l-4 2l-96 -137l-176 -248z" />
<glyph unicode="&#xbf;" horiz-adv-x="1003" d="M127 131q0 114 48.5 210t132.5 171t216 152l4 323h54l6 -350q-103 -68 -170 -121t-122 -114.5t-80.5 -127.5t-25.5 -143q0 -287 330 -287q227 0 416 174l29 -41q-78 -84 -193.5 -135t-253.5 -51q-195 0 -293 86.5t-98 253.5zM483 1315q0 61 66 61q69 0 69 -61 q0 -62 -69 -62q-66 0 -66 62z" />
<glyph unicode="&#xc0;" horiz-adv-x="1404" d="M63 0l603 1536h79l596 -1536h-77l-170 446h-785l-170 -446h-76zM332 504h741l-311 815l-53 158h-7l-57 -158zM489 1878h103l186 -229h-59z" />
<glyph unicode="&#xc1;" horiz-adv-x="1404" d="M63 0l603 1536h79l596 -1536h-77l-170 446h-785l-170 -446h-76zM332 504h741l-311 815l-53 158h-7l-57 -158zM616 1645l193 231h115l-246 -231h-62z" />
<glyph unicode="&#xc2;" horiz-adv-x="1404" d="M63 0l603 1536h79l596 -1536h-77l-170 446h-785l-170 -446h-76zM332 504h741l-311 815l-53 158h-7l-57 -158zM420 1642l252 234h65l258 -234h-84l-206 191l-201 -191h-84z" />
<glyph unicode="&#xc3;" horiz-adv-x="1404" d="M63 0l603 1536h79l596 -1536h-77l-170 446h-785l-170 -446h-76zM332 504h741l-311 815l-53 158h-7l-57 -158zM446 1667q13 82 48.5 132t91.5 50q34 0 69 -26.5t60 -58.5t56.5 -58.5t57.5 -26.5q35 0 61.5 34.5t39.5 103.5l35 -2q-11 -83 -47 -134t-93 -51 q-27 0 -54.5 17.5t-50.5 42.5t-45.5 50t-46.5 42.5t-46 17.5q-69 0 -99 -135z" />
<glyph unicode="&#xc4;" horiz-adv-x="1404" d="M63 0l603 1536h79l596 -1536h-77l-170 446h-785l-170 -446h-76zM332 504h741l-311 815l-53 158h-7l-57 -158zM465 1722q0 58 51 58t51 -58q0 -55 -51 -55t-51 55zM844 1722q0 58 51 58t51 -58q0 -55 -51 -55t-51 55z" />
<glyph unicode="&#xc5;" horiz-adv-x="1404" d="M63 0l601 1530q-43 9 -69 40.5t-26 78.5q0 55 37.5 91t98.5 36q60 0 98.5 -34.5t38.5 -88.5q0 -44 -26 -77.5t-68 -45.5l593 -1530h-77l-170 446h-785l-170 -446h-76zM332 504h741l-311 815l-53 158h-7l-57 -158zM612 1651q0 -39 25.5 -63.5t67.5 -24.5t67 24.5t25 63.5 t-25 62.5t-67 23.5t-67.5 -24.5t-25.5 -61.5z" />
<glyph unicode="&#xc6;" horiz-adv-x="2140" d="M139 0l885 1536h973l6 -59h-885l88 -639h674v-56h-668l101 -723h706l-4 -59h-762l-59 446h-717l-252 -446h-86zM510 504h676l-107 807l-18 164l-6 2l-78 -148z" />
<glyph unicode="&#xc7;" horiz-adv-x="1261" d="M160 786q0 409 150.5 592t475.5 183q96 0 198.5 -23.5t162.5 -56.5l-14 -58q-67 34 -159 56t-186 22q-144 0 -245.5 -36.5t-173 -120t-106 -221.5t-34.5 -337q0 -212 34.5 -358t107.5 -233t175.5 -124.5t248.5 -37.5q182 0 344 86l16 -51q-67 -39 -160.5 -65.5 t-189.5 -29.5l-80 -368h-78l109 368q-313 9 -454.5 202.5t-141.5 610.5z" />
<glyph unicode="&#xc8;" horiz-adv-x="1286" d="M254 0v1536h870l4 -59h-809v-639h707v-56h-707v-723h848l-4 -59h-909zM492 1878h102l186 -229h-59z" />
<glyph unicode="&#xc9;" horiz-adv-x="1286" d="M254 0v1536h870l4 -59h-809v-639h707v-56h-707v-723h848l-4 -59h-909zM621 1645l192 231h115l-246 -231h-61z" />
<glyph unicode="&#xca;" horiz-adv-x="1286" d="M254 0v1536h870l4 -59h-809v-639h707v-56h-707v-723h848l-4 -59h-909zM424 1642l252 234h65l258 -234h-84l-206 191l-201 -191h-84z" />
<glyph unicode="&#xcb;" horiz-adv-x="1286" d="M254 0v1536h870l4 -59h-809v-639h707v-56h-707v-723h848l-4 -59h-909zM469 1722q0 58 51 58t51 -58q0 -55 -51 -55t-51 55zM848 1722q0 58 51 58t51 -58q0 -55 -51 -55t-51 55z" />
<glyph unicode="&#xcc;" horiz-adv-x="632" d="M102 1878h103l186 -229h-59zM283 0v1536h67v-1536h-67z" />
<glyph unicode="&#xcd;" horiz-adv-x="632" d="M229 1645l193 231h115l-246 -231h-62zM283 0v1536h67v-1536h-67z" />
<glyph unicode="&#xce;" horiz-adv-x="632" d="M33 1642l252 234h65l258 -234h-84l-207 191l-200 -191h-84zM283 0v1536h67v-1536h-67z" />
<glyph unicode="&#xcf;" horiz-adv-x="632" d="M78 1722q0 58 51 58t51 -58q0 -55 -51 -55t-51 55zM283 0v1536h67v-1536h-67zM457 1722q0 58 51 58t51 -58q0 -55 -51 -55t-51 55z" />
<glyph unicode="&#xd0;" horiz-adv-x="1531" d="M92 784v50h172v702h477q224 0 361 -76.5t203.5 -244t66.5 -443.5q0 -279 -68.5 -449.5t-205 -246.5t-355.5 -76h-479v784h-172zM332 61h409q144 0 244.5 34t174 114.5t108.5 219.5t35 343q0 199 -32.5 334t-103.5 217t-174 117t-254 35h-407v-641h260v-50h-260v-723z" />
<glyph unicode="&#xd1;" horiz-adv-x="1574" d="M254 0v1536h82l835 -1290l91 -140l4 3l-4 163v1262h59v-1534h-53l-860 1317l-89 141l-4 -2l2 -166v-1290h-63zM549 1667q13 83 48 132.5t91 49.5q34 0 69 -26.5t60.5 -58.5t57 -58.5t57.5 -26.5q35 0 61 34.5t39 103.5l35 -2q-11 -83 -46.5 -134t-92.5 -51 q-33 0 -68 26.5t-60.5 58.5t-57.5 58.5t-58 26.5q-68 0 -98 -135z" />
<glyph unicode="&#xd2;" horiz-adv-x="1503" d="M160 768q0 292 58.5 464t187.5 250.5t348 78.5q165 0 275.5 -42t181.5 -138.5t101.5 -244.5t30.5 -368t-30.5 -368.5t-101.5 -245t-181.5 -139t-275.5 -42.5q-219 0 -348 79t-187.5 251t-58.5 465zM229 768q0 -212 29 -352.5t94.5 -226t161.5 -121t240 -35.5 q192 0 303 66.5t165 226.5t54 442q0 214 -28.5 354t-93.5 225t-160.5 119.5t-239.5 34.5t-240 -34.5t-161.5 -119.5t-94.5 -225.5t-29 -353.5zM582 1878h102l186 -229h-59z" />
<glyph unicode="&#xd3;" horiz-adv-x="1503" d="M160 768q0 292 58.5 464t187.5 250.5t348 78.5q165 0 275.5 -42t181.5 -138.5t101.5 -244.5t30.5 -368t-30.5 -368.5t-101.5 -245t-181.5 -139t-275.5 -42.5q-219 0 -348 79t-187.5 251t-58.5 465zM229 768q0 -212 29 -352.5t94.5 -226t161.5 -121t240 -35.5 q192 0 303 66.5t165 226.5t54 442q0 214 -28.5 354t-93.5 225t-160.5 119.5t-239.5 34.5t-240 -34.5t-161.5 -119.5t-94.5 -225.5t-29 -353.5zM666 1645l192 231h115l-246 -231h-61z" />
<glyph unicode="&#xd4;" horiz-adv-x="1503" d="M160 768q0 292 58.5 464t187.5 250.5t348 78.5q165 0 275.5 -42t181.5 -138.5t101.5 -244.5t30.5 -368t-30.5 -368.5t-101.5 -245t-181.5 -139t-275.5 -42.5q-219 0 -348 79t-187.5 251t-58.5 465zM229 768q0 -212 29 -352.5t94.5 -226t161.5 -121t240 -35.5 q192 0 303 66.5t165 226.5t54 442q0 214 -28.5 354t-93.5 225t-160.5 119.5t-239.5 34.5t-240 -34.5t-161.5 -119.5t-94.5 -225.5t-29 -353.5zM469 1642l252 234h65l258 -234h-83l-207 191l-201 -191h-84z" />
<glyph unicode="&#xd5;" horiz-adv-x="1503" d="M160 768q0 292 58.5 464t187.5 250.5t348 78.5q165 0 275.5 -42t181.5 -138.5t101.5 -244.5t30.5 -368t-30.5 -368.5t-101.5 -245t-181.5 -139t-275.5 -42.5q-219 0 -348 79t-187.5 251t-58.5 465zM229 768q0 -212 29 -352.5t94.5 -226t161.5 -121t240 -35.5 q192 0 303 66.5t165 226.5t54 442q0 214 -28.5 354t-93.5 225t-160.5 119.5t-239.5 34.5t-240 -34.5t-161.5 -119.5t-94.5 -225.5t-29 -353.5zM494 1667q13 83 48 132.5t91 49.5q34 0 69 -26.5t60.5 -58.5t57 -58.5t57.5 -26.5q35 0 61 34.5t39 103.5l35 -2 q-11 -83 -47 -134t-93 -51q-27 0 -54.5 17.5t-50.5 42.5t-45.5 50t-46.5 42.5t-46 17.5q-69 0 -99 -135z" />
<glyph unicode="&#xd6;" horiz-adv-x="1503" d="M160 768q0 292 58.5 464t187.5 250.5t348 78.5q165 0 275.5 -42t181.5 -138.5t101.5 -244.5t30.5 -368t-30.5 -368.5t-101.5 -245t-181.5 -139t-275.5 -42.5q-219 0 -348 79t-187.5 251t-58.5 465zM229 768q0 -212 29 -352.5t94.5 -226t161.5 -121t240 -35.5 q192 0 303 66.5t165 226.5t54 442q0 214 -28.5 354t-93.5 225t-160.5 119.5t-239.5 34.5t-240 -34.5t-161.5 -119.5t-94.5 -225.5t-29 -353.5zM514 1722q0 58 51 58t51 -58q0 -55 -51 -55t-51 55zM893 1722q0 58 51 58t51 -58q0 -55 -51 -55t-51 55z" />
<glyph unicode="&#xd7;" horiz-adv-x="1212" d="M236 367l333 333l-331 330l41 39l331 -330l326 330l41 -41l-328 -328l328 -333l-37 -37l-332 332l-332 -334z" />
<glyph unicode="&#xd8;" horiz-adv-x="1503" d="M137 16l131 179q-108 180 -108 573q0 292 58.5 464t187.5 250.5t348 78.5q171 0 285 -46.5t182 -146.5l155 186l39 -36l-164 -203q92 -174 92 -547q0 -221 -30.5 -369t-101 -244.5t-181.5 -139t-276 -42.5q-161 0 -271.5 41t-181.5 131l-123 -170zM229 768 q0 -347 84 -516l11 2l847 1067q-60 96 -161.5 138t-255.5 42q-144 0 -240 -34.5t-161.5 -119.5t-94.5 -225.5t-29 -353.5zM344 197q61 -87 162 -125.5t248 -38.5q192 0 303 66.5t165 226.5t54 442q0 327 -76 498l-850 -1065z" />
<glyph unicode="&#xd9;" horiz-adv-x="1527" d="M215 557v979h68v-981q0 -268 119.5 -394t361.5 -126t361.5 127t119.5 393v981h68v-979q0 -306 -141.5 -445t-407.5 -139q-267 0 -408 139t-141 445zM545 1878h102l187 -229h-60z" />
<glyph unicode="&#xda;" horiz-adv-x="1527" d="M215 557v979h68v-981q0 -268 119.5 -394t361.5 -126t361.5 127t119.5 393v981h68v-979q0 -306 -141.5 -445t-407.5 -139q-267 0 -408 139t-141 445zM674 1645l192 231h115l-246 -231h-61z" />
<glyph unicode="&#xdb;" horiz-adv-x="1527" d="M215 557v979h68v-981q0 -268 119.5 -394t361.5 -126t361.5 127t119.5 393v981h68v-979q0 -306 -141.5 -445t-407.5 -139q-267 0 -408 139t-141 445zM477 1642l252 234h66l258 -234h-84l-207 191l-201 -191h-84z" />
<glyph unicode="&#xdc;" horiz-adv-x="1527" d="M215 557v979h68v-981q0 -268 119.5 -394t361.5 -126t361.5 127t119.5 393v981h68v-979q0 -306 -141.5 -445t-407.5 -139q-267 0 -408 139t-141 445zM522 1722q0 58 51 58q52 0 52 -58q0 -55 -52 -55q-51 0 -51 55zM901 1722q0 58 51 58q52 0 52 -58q0 -55 -52 -55 q-51 0 -51 55z" />
<glyph unicode="&#xdd;" horiz-adv-x="1314" d="M76 1536h84l420 -764l77 -145h7l75 145l420 764h80l-545 -979v-557h-69v557zM573 1645l193 231h115l-246 -231h-62z" />
<glyph unicode="&#xde;" horiz-adv-x="1306" d="M254 0v1536h65v-305h347q283 0 404.5 -100t121.5 -332t-121 -335.5t-405 -103.5h-347v-360h-65zM319 418h347q242 0 350 86t108 297q0 200 -108 285t-350 85h-347v-753z" />
<glyph unicode="&#xdf;" horiz-adv-x="1249" d="M229 0v1065q0 238 113.5 368t314.5 130q127 0 212 -65.5t85 -162.5q0 -57 -26 -112t-65 -96t-84 -81t-84 -69.5t-65 -60t-26 -54.5q0 -27 29.5 -54t76.5 -51.5t104 -52.5t114.5 -64.5t104.5 -79.5t76.5 -104.5t29.5 -133.5q0 -158 -115 -248t-309 -90q-95 0 -190.5 24.5 t-157.5 73.5l10 55q129 -100 332 -100q166 0 267 75.5t101 209.5q0 66 -29.5 122t-77 94.5t-105 72t-115 61t-105 54.5t-77 60t-29.5 70q0 43 37 87.5t89.5 85.5t105 84.5t89.5 101t37 118.5q0 76 -67 126t-173 50q-178 0 -273 -114.5t-95 -325.5v-1069h-60z" />
<glyph unicode="&#xe0;" horiz-adv-x="1157" d="M147 348q0 350 435 350q180 0 323 -63v182q0 101 -20 168.5t-63 107.5t-103.5 57t-147.5 17q-197 0 -344 -82l-10 56q168 80 363 80q205 0 296 -94t91 -318v-809h-47l-7 195l-6 2q-42 -94 -151 -154.5t-244 -60.5q-170 0 -267.5 87.5t-97.5 278.5zM209 348 q0 -315 319 -315q145 0 261 87t116 187v277q-30 23 -118 44t-199 21q-379 0 -379 -301zM377 1659h96l158 -289h-58z" />
<glyph unicode="&#xe1;" horiz-adv-x="1157" d="M147 348q0 350 435 350q180 0 323 -63v182q0 101 -20 168.5t-63 107.5t-103.5 57t-147.5 17q-197 0 -344 -82l-10 56q168 80 363 80q205 0 296 -94t91 -318v-809h-47l-7 195l-6 2q-42 -94 -151 -154.5t-244 -60.5q-170 0 -267.5 87.5t-97.5 278.5zM209 348 q0 -315 319 -315q145 0 261 87t116 187v277q-30 23 -118 44t-199 21q-379 0 -379 -301zM485 1370l179 289h98l-219 -289h-58z" />
<glyph unicode="&#xe2;" horiz-adv-x="1157" d="M147 348q0 350 435 350q180 0 323 -63v182q0 101 -20 168.5t-63 107.5t-103.5 57t-147.5 17q-197 0 -344 -82l-10 56q168 80 363 80q205 0 296 -94t91 -318v-809h-47l-7 195l-6 2q-42 -94 -151 -154.5t-244 -60.5q-170 0 -267.5 87.5t-97.5 278.5zM209 348 q0 -315 319 -315q145 0 261 87t116 187v277q-30 23 -118 44t-199 21q-379 0 -379 -301zM319 1370l220 289h63l223 -289h-63l-193 254l-188 -254h-62z" />
<glyph unicode="&#xe3;" horiz-adv-x="1157" d="M147 348q0 350 435 350q180 0 323 -63v182q0 101 -20 168.5t-63 107.5t-103.5 57t-147.5 17q-197 0 -344 -82l-10 56q168 80 363 80q205 0 296 -94t91 -318v-809h-47l-7 195l-6 2q-42 -94 -151 -154.5t-244 -60.5q-170 0 -267.5 87.5t-97.5 278.5zM209 348 q0 -315 319 -315q145 0 261 87t116 187v277q-30 23 -118 44t-199 21q-379 0 -379 -301zM301 1432q12 93 50 145.5t93 52.5q31 0 60.5 -17.5t53 -43t46 -51t47.5 -43t49 -17.5q33 0 59.5 39t41.5 111l41 -2q-12 -93 -50.5 -146t-95.5 -53q-36 0 -72 27t-61.5 59t-58 59 t-60.5 27q-32 0 -59.5 -40.5t-42.5 -108.5z" />
<glyph unicode="&#xe4;" horiz-adv-x="1157" d="M147 348q0 350 435 350q180 0 323 -63v182q0 101 -20 168.5t-63 107.5t-103.5 57t-147.5 17q-197 0 -344 -82l-10 56q168 80 363 80q205 0 296 -94t91 -318v-809h-47l-7 195l-6 2q-42 -94 -151 -154.5t-244 -60.5q-170 0 -267.5 87.5t-97.5 278.5zM209 348 q0 -315 319 -315q145 0 261 87t116 187v277q-30 23 -118 44t-199 21q-379 0 -379 -301zM391 1563q0 27 13.5 42t37.5 15q52 0 52 -57q0 -58 -52 -58q-51 0 -51 58zM674 1563q0 57 53 57q49 0 49 -57q0 -58 -49 -58q-53 0 -53 58z" />
<glyph unicode="&#xe5;" horiz-adv-x="1157" d="M147 348q0 350 435 350q180 0 323 -63v182q0 101 -20 168.5t-63 107.5t-103.5 57t-147.5 17q-197 0 -344 -82l-10 56q168 80 363 80q205 0 296 -94t91 -318v-809h-47l-7 195l-6 2q-42 -94 -151 -154.5t-244 -60.5q-170 0 -267.5 87.5t-97.5 278.5zM209 348 q0 -315 319 -315q145 0 261 87t116 187v277q-30 23 -118 44t-199 21q-379 0 -379 -301zM424 1528q0 63 43.5 103t112.5 40q67 0 111 -40.5t44 -102.5q0 -61 -43.5 -101.5t-111.5 -40.5t-112 40.5t-44 101.5zM469 1528q0 -47 30 -76t83 -29q49 0 80.5 29.5t31.5 75.5 t-31.5 76t-80.5 30q-53 0 -83 -29.5t-30 -76.5z" />
<glyph unicode="&#xe6;" horiz-adv-x="1925" d="M147 344q0 174 106.5 261t328.5 87q175 0 323 -67v188q0 101 -20 168.5t-63 107.5t-103.5 57t-147.5 17q-197 0 -344 -82l-10 56q168 80 363 80q164 0 251 -61.5t111 -201.5h4q52 131 157 197t251 66q203 0 323.5 -135.5t120.5 -415.5q0 -21 -2 -29h-840 q3 -226 53 -359.5t146.5 -190t255.5 -56.5q170 0 334 96l8 -53q-160 -99 -350 -99q-192 0 -306.5 72t-156.5 227h-6q-34 -135 -145.5 -216t-270.5 -81q-371 0 -371 367zM207 344q0 -315 321 -315q163 0 270 96.5t107 239.5v215q-30 23 -118 44t-199 21q-381 0 -381 -301z M956 680h785q-3 249 -108 366t-279 117q-383 0 -398 -483z" />
<glyph unicode="&#xe7;" horiz-adv-x="1032" d="M131 618q0 309 115 452.5t362 143.5q163 0 301 -69l-8 -58q-138 74 -285 74q-222 0 -321.5 -129t-99.5 -414q0 -216 48.5 -347.5t138.5 -186.5t232 -55q179 0 295 96l11 -55q-56 -41 -135 -67.5t-164 -29.5l-80 -368h-78l108 368q-227 11 -333.5 162t-106.5 483z" />
<glyph unicode="&#xe8;" horiz-adv-x="1165" d="M131 647q0 281 117 425.5t344 144.5q99 0 179 -31.5t140.5 -96.5t93.5 -172.5t33 -250.5q0 -21 -2 -29h-841q2 -227 50.5 -360t145 -189.5t256.5 -56.5q175 0 336 96l8 -53q-160 -99 -348 -99q-277 0 -394.5 155.5t-117.5 516.5zM193 680h786q-3 250 -106.5 366.5 t-280.5 116.5q-196 0 -293 -122t-106 -361zM397 1659h97l157 -289h-57z" />
<glyph unicode="&#xe9;" horiz-adv-x="1165" d="M131 647q0 281 117 425.5t344 144.5q99 0 179 -31.5t140.5 -96.5t93.5 -172.5t33 -250.5q0 -21 -2 -29h-841q2 -227 50.5 -360t145 -189.5t256.5 -56.5q175 0 336 96l8 -53q-160 -99 -348 -99q-277 0 -394.5 155.5t-117.5 516.5zM193 680h786q-3 250 -106.5 366.5 t-280.5 116.5q-196 0 -293 -122t-106 -361zM506 1370l178 289h98l-219 -289h-57z" />
<glyph unicode="&#xea;" horiz-adv-x="1165" d="M131 647q0 281 117 425.5t344 144.5q99 0 179 -31.5t140.5 -96.5t93.5 -172.5t33 -250.5q0 -21 -2 -29h-841q2 -227 50.5 -360t145 -189.5t256.5 -56.5q175 0 336 96l8 -53q-160 -99 -348 -99q-277 0 -394.5 155.5t-117.5 516.5zM193 680h786q-3 250 -106.5 366.5 t-280.5 116.5q-196 0 -293 -122t-106 -361zM340 1370l219 289h64l223 -289h-64l-192 254l-189 -254h-61z" />
<glyph unicode="&#xeb;" horiz-adv-x="1165" d="M131 647q0 281 117 425.5t344 144.5q99 0 179 -31.5t140.5 -96.5t93.5 -172.5t33 -250.5q0 -21 -2 -29h-841q2 -227 50.5 -360t145 -189.5t256.5 -56.5q175 0 336 96l8 -53q-160 -99 -348 -99q-277 0 -394.5 155.5t-117.5 516.5zM193 680h786q-3 250 -106.5 366.5 t-280.5 116.5q-196 0 -293 -122t-106 -361zM387 1563q0 27 13.5 42t37.5 15q51 0 51 -57q0 -58 -51 -58t-51 58zM670 1563q0 57 53 57q49 0 49 -57q0 -58 -49 -58q-53 0 -53 58z" />
<glyph unicode="&#xec;" horiz-adv-x="622" d="M113 1659h96l158 -289h-58zM281 0v1192l61 6v-1198h-61z" />
<glyph unicode="&#xed;" horiz-adv-x="622" d="M221 1370l178 289h99l-219 -289h-58zM281 0v1192l61 6v-1198h-61z" />
<glyph unicode="&#xee;" horiz-adv-x="622" d="M53 1370l219 289h64l223 -289h-63l-193 254l-188 -254h-62zM281 0v1192l61 6v-1198h-61z" />
<glyph unicode="&#xef;" horiz-adv-x="622" d="M125 1563q0 27 13.5 42t37.5 15q51 0 51 -57q0 -58 -51 -58t-51 58zM281 0v1192l61 6v-1198h-61zM408 1563q0 57 53 57q49 0 49 -57q0 -58 -49 -58q-53 0 -53 58z" />
<glyph unicode="&#xf0;" horiz-adv-x="1239" d="M131 594q0 319 109 461.5t372 142.5q240 0 363 -158l4 2q-110 249 -305 414l-172 -160l-35 25l174 162q-79 64 -209 143l31 37q99 -51 213 -147l158 149l34 -27l-161 -149q177 -163 289 -377t112 -436q0 -369 -120 -535t-363 -166q-173 0 -279 57.5t-160.5 194 t-54.5 367.5zM195 594q0 -163 27 -274t84 -174t133.5 -89t185.5 -26q211 0 315 154.5t104 488.5q0 228 -104.5 349.5t-316.5 121.5q-230 0 -329 -126.5t-99 -424.5z" />
<glyph unicode="&#xf1;" horiz-adv-x="1253" d="M215 0v1196l45 4l10 -162h6q57 81 160 128.5t219 47.5q197 0 302.5 -95.5t105.5 -291.5v-827h-62v825q0 334 -358 334q-103 0 -208.5 -51t-158.5 -139v-969h-61zM358 1432q12 92 50.5 145t93.5 53q31 0 60.5 -17.5t53 -43t46 -51t47.5 -43t49 -17.5q33 0 59 38.5 t41 111.5l41 -2q-12 -93 -50 -146t-95 -53q-36 0 -72 27t-61.5 59t-58 59t-60.5 27q-32 0 -60 -40.5t-43 -108.5z" />
<glyph unicode="&#xf2;" horiz-adv-x="1236" d="M131 596q0 330 118 474t374 144q257 0 370 -143t113 -475q0 -336 -113 -479.5t-370 -143.5q-258 0 -375 144.5t-117 478.5zM195 596q0 -304 99.5 -436.5t328.5 -132.5q225 0 322 132t97 437q0 303 -97 435t-322 132q-228 0 -328 -133t-100 -434zM430 1659h96l158 -289 h-57z" />
<glyph unicode="&#xf3;" horiz-adv-x="1236" d="M131 596q0 330 118 474t374 144q257 0 370 -143t113 -475q0 -336 -113 -479.5t-370 -143.5q-258 0 -375 144.5t-117 478.5zM195 596q0 -304 99.5 -436.5t328.5 -132.5q225 0 322 132t97 437q0 303 -97 435t-322 132q-228 0 -328 -133t-100 -434zM539 1370l178 289h98 l-219 -289h-57z" />
<glyph unicode="&#xf4;" horiz-adv-x="1236" d="M131 596q0 330 118 474t374 144q257 0 370 -143t113 -475q0 -336 -113 -479.5t-370 -143.5q-258 0 -375 144.5t-117 478.5zM195 596q0 -304 99.5 -436.5t328.5 -132.5q225 0 322 132t97 437q0 303 -97 435t-322 132q-228 0 -328 -133t-100 -434zM371 1370l219 289h63 l224 -289h-64l-192 254l-189 -254h-61z" />
<glyph unicode="&#xf5;" horiz-adv-x="1236" d="M131 596q0 330 118 474t374 144q257 0 370 -143t113 -475q0 -336 -113 -479.5t-370 -143.5q-258 0 -375 144.5t-117 478.5zM195 596q0 -304 99.5 -436.5t328.5 -132.5q225 0 322 132t97 437q0 303 -97 435t-322 132q-228 0 -328 -133t-100 -434zM352 1432q12 92 50.5 145 t93.5 53q31 0 60.5 -17.5t53 -43t46 -51t47.5 -43t49 -17.5q33 0 59 38.5t41 111.5l41 -2q-12 -93 -50 -146t-95 -53q-36 0 -72 27t-61.5 59t-58 59t-60.5 27q-32 0 -60 -40.5t-43 -108.5z" />
<glyph unicode="&#xf6;" horiz-adv-x="1236" d="M131 596q0 330 118 474t374 144q257 0 370 -143t113 -475q0 -336 -113 -479.5t-370 -143.5q-258 0 -375 144.5t-117 478.5zM195 596q0 -304 99.5 -436.5t328.5 -132.5q225 0 322 132t97 437q0 303 -97 435t-322 132q-228 0 -328 -133t-100 -434zM426 1563q0 27 13.5 42 t37.5 15q51 0 51 -57q0 -58 -51 -58t-51 58zM709 1563q0 57 53 57q49 0 49 -57q0 -58 -49 -58q-53 0 -53 58z" />
<glyph unicode="&#xf7;" horiz-adv-x="1212" d="M147 672v59h918v-59h-918zM541 422q0 27 16.5 42t46.5 15q62 0 62 -57t-62 -57q-63 0 -63 57zM541 979q0 27 16.5 42t46.5 15q62 0 62 -57q0 -59 -62 -59q-63 0 -63 59z" />
<glyph unicode="&#xf8;" horiz-adv-x="1236" d="M100 47l105 135q-74 148 -74 414q0 330 117.5 474t374.5 144q239 0 352 -122l84 114l35 -30l-88 -123q100 -147 100 -457q0 -336 -113 -479.5t-370 -143.5q-276 0 -390 164l-100 -123zM195 596q0 -234 55 -358l688 802q-100 123 -315 123q-228 0 -328 -133t-100 -434z M270 193q98 -166 353 -166q225 0 322 132t97 437q0 271 -77 405z" />
<glyph unicode="&#xf9;" horiz-adv-x="1228" d="M190 358v838h62v-836q0 -160 92 -244.5t270 -84.5q177 0 270 84.5t93 244.5v836h61v-838q0 -181 -106.5 -282t-317.5 -101t-317.5 101t-106.5 282zM424 1659h96l158 -289h-57z" />
<glyph unicode="&#xfa;" horiz-adv-x="1228" d="M190 358v838h62v-836q0 -160 92 -244.5t270 -84.5q177 0 270 84.5t93 244.5v836h61v-838q0 -181 -106.5 -282t-317.5 -101t-317.5 101t-106.5 282zM532 1370l179 289h98l-219 -289h-58z" />
<glyph unicode="&#xfb;" horiz-adv-x="1228" d="M190 358v838h62v-836q0 -160 92 -244.5t270 -84.5q177 0 270 84.5t93 244.5v836h61v-838q0 -181 -106.5 -282t-317.5 -101t-317.5 101t-106.5 282zM365 1370l219 289h63l223 -289h-63l-193 254l-188 -254h-61z" />
<glyph unicode="&#xfc;" horiz-adv-x="1228" d="M190 358v838h62v-836q0 -160 92 -244.5t270 -84.5q177 0 270 84.5t93 244.5v836h61v-838q0 -181 -106.5 -282t-317.5 -101t-317.5 101t-106.5 282zM422 1563q0 27 13.5 42t37.5 15q51 0 51 -57q0 -58 -51 -58t-51 58zM705 1563q0 57 53 57q49 0 49 -57q0 -58 -49 -58 q-53 0 -53 58z" />
<glyph unicode="&#xfd;" horiz-adv-x="1273" d="M104 1196h78l428 -999l64 -154h6l53 156l365 997h71l-471 -1264q-58 -134 -127.5 -187.5t-167.5 -53.5q-89 0 -163 41l12 51q63 -39 143 -39t135 43.5t103 155.5l10 28zM537 1370l178 289h98l-219 -289h-57z" />
<glyph unicode="&#xfe;" horiz-adv-x="1282" d="M233 -289v1934l62 4v-441l-2 -164l4 -2q65 84 169 129.5t232 45.5q112 0 192.5 -30.5t140 -101t89 -191t29.5 -294.5q0 -172 -31 -294t-92.5 -194t-145.5 -104.5t-198 -32.5q-263 0 -385 177l-4 -2l2 -166v-273h-62zM295 229q49 -87 144.5 -144.5t228.5 -57.5 q79 0 140.5 16.5t114.5 56.5t88 104.5t54.5 164t19.5 231.5q0 161 -26.5 271.5t-80.5 173t-124.5 88.5t-169.5 26q-262 0 -389 -192v-738z" />
<glyph unicode="&#xff;" horiz-adv-x="1273" d="M104 1196h78l428 -999l64 -154h6l53 156l365 997h71l-471 -1264q-58 -134 -127.5 -187.5t-167.5 -53.5q-89 0 -163 41l12 51q63 -39 143 -39t135 43.5t103 155.5l10 28zM444 1563q0 26 13.5 41.5t38.5 15.5q51 0 51 -57q0 -58 -51 -58q-52 0 -52 58zM727 1563q0 57 53 57 q49 0 49 -57q0 -58 -49 -58q-53 0 -53 58z" />
<glyph unicode="&#x152;" horiz-adv-x="2297" d="M160 768q0 292 58 464t185 250.5t342 78.5q213 0 342.5 -76.5t180.5 -247.5h6l-4 149v150h866l4 -59h-807v-639h703v-56h-703v-723h846l-4 -59h-905v143l4 166l-6 2q-103 -338 -523 -338q-215 0 -342 79t-185 251.5t-58 464.5zM229 768q0 -212 29 -352.5t94.5 -226 t161.5 -121t240 -35.5t238.5 35.5t158 121.5t90.5 225.5t27 352.5q0 214 -27 354t-90.5 225.5t-158 120.5t-238.5 35t-240 -35t-161.5 -120t-94.5 -226t-29 -354z" />
<glyph unicode="&#x153;" horiz-adv-x="2093" d="M156 596q0 330 116.5 474t370.5 144q189 0 301 -78t146 -249h6q36 166 145.5 248t280.5 82q203 0 323.5 -135.5t120.5 -415.5q0 -4 -1 -14.5t-1 -14.5h-838q2 -227 51 -360t145 -189.5t255 -56.5q170 0 334 96l10 -53q-163 -99 -350 -99q-211 0 -321 85.5t-150 279.5h-6 q-37 -196 -149 -281.5t-302 -85.5q-256 0 -371.5 144t-115.5 479zM217 596q0 -304 99.5 -436.5t328.5 -132.5q226 0 322 131.5t96 437.5q0 304 -96 435.5t-322 131.5q-228 0 -328 -133t-100 -434zM1124 680h783q-1 127 -31 222.5t-83.5 151t-121.5 82.5t-151 27 q-384 0 -396 -483z" />
<glyph unicode="&#x178;" horiz-adv-x="1314" d="M76 1536h84l420 -764l77 -145h7l75 145l420 764h80l-545 -979v-557h-69v557zM420 1722q0 58 51 58t51 -58q0 -55 -51 -55t-51 55zM799 1722q0 58 51 58t51 -58q0 -55 -51 -55t-51 55z" />
<glyph unicode="&#x2c6;" horiz-adv-x="802" d="M150 1370l219 289h63l223 -289h-63l-193 254l-188 -254h-61z" />
<glyph unicode="&#x2dc;" horiz-adv-x="802" d="M143 1432q12 92 50.5 145t93.5 53q31 0 60.5 -17.5t53 -43t46 -51t47.5 -43t49 -17.5q33 0 59 38.5t41 111.5l41 -2q-12 -93 -50 -146t-95 -53q-36 0 -72 27t-61.5 59t-58 59t-60.5 27q-32 0 -60 -40.5t-43 -108.5z" />
<glyph unicode="&#x2000;" horiz-adv-x="939" />
<glyph unicode="&#x2001;" horiz-adv-x="1878" />
<glyph unicode="&#x2002;" horiz-adv-x="939" />
<glyph unicode="&#x2003;" horiz-adv-x="1878" />
<glyph unicode="&#x2004;" horiz-adv-x="626" />
<glyph unicode="&#x2005;" horiz-adv-x="469" />
<glyph unicode="&#x2006;" horiz-adv-x="313" />
<glyph unicode="&#x2007;" horiz-adv-x="313" />
<glyph unicode="&#x2008;" horiz-adv-x="234" />
<glyph unicode="&#x2009;" horiz-adv-x="375" />
<glyph unicode="&#x200a;" horiz-adv-x="104" />
<glyph unicode="&#x2010;" horiz-adv-x="862" d="M184 672v47h496v-47h-496z" />
<glyph unicode="&#x2011;" horiz-adv-x="862" d="M184 672v47h496v-47h-496z" />
<glyph unicode="&#x2012;" horiz-adv-x="862" d="M184 672v47h496v-47h-496z" />
<glyph unicode="&#x2013;" horiz-adv-x="1124" d="M182 672v47h760v-47h-760z" />
<glyph unicode="&#x2014;" horiz-adv-x="1472" d="M182 672v47h1108v-47h-1108z" />
<glyph unicode="&#x2018;" horiz-adv-x="432" d="M150 1366q0 32 36 140.5t70 183.5l27 -7l-54 -258q23 -3 38.5 -20t15.5 -39q0 -68 -64 -68q-69 0 -69 68z" />
<glyph unicode="&#x2019;" horiz-adv-x="432" d="M150 1579q0 68 65 68q36 0 54 -18t18 -50q-1 -33 -38.5 -140.5t-72.5 -183.5l-24 5l53 260q-25 1 -40 18t-15 41z" />
<glyph unicode="&#x201a;" horiz-adv-x="432" d="M150 41q0 68 65 68q36 0 54 -18t18 -50q-1 -33 -38.5 -140.5t-72.5 -183.5l-24 4l53 261q-25 1 -40 18t-15 41z" />
<glyph unicode="&#x201c;" horiz-adv-x="735" d="M150 1366q0 32 36 140.5t70 183.5l27 -7l-54 -258q23 -3 38.5 -20t15.5 -39q0 -68 -64 -68q-69 0 -69 68zM451 1366q0 31 37 138.5t73 185.5l23 -7l-54 -258q25 -1 41.5 -18.5t16.5 -40.5q0 -68 -68 -68q-69 0 -69 68z" />
<glyph unicode="&#x201d;" horiz-adv-x="735" d="M150 1579q0 68 65 68q36 0 54 -18t18 -50q-1 -33 -38.5 -140.5t-72.5 -183.5l-24 5l53 260q-25 1 -40 18t-15 41zM451 1579q0 68 65 68q36 0 54 -18t18 -50q-1 -33 -38.5 -140.5t-72.5 -183.5l-24 5l53 260q-25 1 -40 18t-15 41z" />
<glyph unicode="&#x201e;" horiz-adv-x="735" d="M150 41q0 68 65 68q36 0 54 -18t18 -50q-1 -33 -38.5 -140.5t-72.5 -183.5l-24 4l53 261q-25 1 -40 18t-15 41zM451 41q0 68 65 68q36 0 54 -18t18 -50q-1 -33 -38.5 -140.5t-72.5 -183.5l-24 4l53 261q-25 1 -40 18t-15 41z" />
<glyph unicode="&#x2022;" horiz-adv-x="817" d="M176 662q0 113 56 168t171 55q114 0 169 -55t55 -168q0 -117 -55 -173.5t-169 -56.5q-115 0 -171 56.5t-56 173.5z" />
<glyph unicode="&#x2026;" horiz-adv-x="1157" d="M172 45q0 66 68 66q67 0 67 -66q0 -65 -67 -65q-68 0 -68 65zM522 45q0 66 68 66q67 0 67 -66q0 -65 -67 -65q-68 0 -68 65zM850 45q0 66 68 66q67 0 67 -66q0 -65 -67 -65q-68 0 -68 65z" />
<glyph unicode="&#x202f;" horiz-adv-x="375" />
<glyph unicode="&#x2039;" horiz-adv-x="851" d="M125 676v12l547 342v-59l-469 -291l469 -289v-57z" />
<glyph unicode="&#x203a;" horiz-adv-x="851" d="M180 334v57l471 289l-471 291v59l549 -342v-12z" />
<glyph unicode="&#x205f;" horiz-adv-x="469" />
<glyph unicode="&#x20ac;" horiz-adv-x="1449" d="M86 639v53h193q-3 52 -3 107v61h-190v55h195q47 637 618 637q107 0 211.5 -23.5t169.5 -62.5l-18 -49q-93 43 -173.5 61.5t-187.5 18.5q-253 0 -393.5 -149t-165.5 -433h752l-17 -55h-739v-65q0 -70 2 -103h670l-17 -53h-651q24 -314 158.5 -457t394.5 -143 q223 0 420 131l10 -55q-82 -60 -198.5 -95.5t-235.5 -35.5q-302 0 -444 157.5t-166 497.5h-195z" />
<glyph unicode="&#x2122;" horiz-adv-x="1294" d="M94 1561v36h418v-36h-188v-500h-41v500h-189zM612 1061v536h62l149 -337l66 -152h6l63 152l152 337h53v-536h-37v321l4 166l-6 2l-65 -153l-150 -336h-35l-153 338l-66 153l-4 -2l2 -166v-323h-41z" />
<glyph unicode="&#x25fc;" horiz-adv-x="1198" d="M0 0v1198h1198v-1198h-1198z" />
<hkern u1="&#x22;" u2="x" k="-4" />
<hkern u1="&#x22;" u2="g" k="29" />
<hkern u1="&#x27;" u2="x" k="-4" />
<hkern u1="&#x27;" u2="g" k="29" />
<hkern u1="&#x2a;" u2="x" k="-4" />
<hkern u1="&#x2a;" u2="g" k="29" />
<hkern u1="&#x2d;" u2="x" k="51" />
<hkern u1="&#x2d;" u2="g" k="25" />
<hkern u1="&#x2d;" u2="]" k="59" />
<hkern u1="A" u2="g" k="8" />
<hkern u1="A" u2="]" k="29" />
<hkern u1="A" u2="J" k="-31" />
<hkern u1="B" u2="x" k="2" />
<hkern u1="C" u2="x" k="2" />
<hkern u1="D" u2="x" k="10" />
<hkern u1="D" u2="]" k="23" />
<hkern u1="D" u2="J" k="31" />
<hkern u1="F" u2="x" k="39" />
<hkern u1="F" u2="J" k="92" />
<hkern u1="L" u2="J" k="-4" />
<hkern u1="O" u2="x" k="10" />
<hkern u1="O" u2="]" k="23" />
<hkern u1="O" u2="J" k="31" />
<hkern u1="P" u2="J" k="223" />
<hkern u1="Q" u2="x" k="10" />
<hkern u1="Q" u2="]" k="23" />
<hkern u1="Q" u2="J" k="31" />
<hkern u1="S" u2="x" k="20" />
<hkern u1="T" u2="x" k="84" />
<hkern u1="T" u2="g" k="82" />
<hkern u1="T" u2="J" k="98" />
<hkern u1="V" u2="x" k="35" />
<hkern u1="V" u2="g" k="27" />
<hkern u1="V" u2="J" k="92" />
<hkern u1="W" u2="x" k="20" />
<hkern u1="W" u2="g" k="20" />
<hkern u1="W" u2="J" k="68" />
<hkern u1="Y" u2="x" k="4" />
<hkern u1="Y" u2="g" k="41" />
<hkern u1="Y" u2="J" k="82" />
<hkern u1="[" g2="uniFB01" k="23" />
<hkern u1="[" u2="&#x2039;" k="59" />
<hkern u1="[" u2="&#x2026;" k="35" />
<hkern u1="[" u2="&#x2022;" k="59" />
<hkern u1="[" u2="&#x201e;" k="35" />
<hkern u1="[" u2="&#x201a;" k="35" />
<hkern u1="[" u2="&#x2014;" k="59" />
<hkern u1="[" u2="&#x2013;" k="59" />
<hkern u1="[" u2="&#x153;" k="27" />
<hkern u1="[" u2="&#x152;" k="29" />
<hkern u1="[" u2="&#xff;" k="23" />
<hkern u1="[" u2="&#xfd;" k="23" />
<hkern u1="[" u2="&#xfc;" k="23" />
<hkern u1="[" u2="&#xfb;" k="23" />
<hkern u1="[" u2="&#xfa;" k="23" />
<hkern u1="[" u2="&#xf9;" k="23" />
<hkern u1="[" u2="&#xf8;" k="27" />
<hkern u1="[" u2="&#xf6;" k="27" />
<hkern u1="[" u2="&#xf5;" k="27" />
<hkern u1="[" u2="&#xf4;" k="27" />
<hkern u1="[" u2="&#xf3;" k="27" />
<hkern u1="[" u2="&#xf2;" k="27" />
<hkern u1="[" u2="&#xf1;" k="20" />
<hkern u1="[" u2="&#xf0;" k="27" />
<hkern u1="[" u2="&#xeb;" k="27" />
<hkern u1="[" u2="&#xea;" k="27" />
<hkern u1="[" u2="&#xe9;" k="27" />
<hkern u1="[" u2="&#xe8;" k="27" />
<hkern u1="[" u2="&#xe7;" k="27" />
<hkern u1="[" u2="&#xe6;" k="14" />
<hkern u1="[" u2="&#xe5;" k="14" />
<hkern u1="[" u2="&#xe4;" k="14" />
<hkern u1="[" u2="&#xe3;" k="14" />
<hkern u1="[" u2="&#xe2;" k="14" />
<hkern u1="[" u2="&#xe1;" k="14" />
<hkern u1="[" u2="&#xe0;" k="14" />
<hkern u1="[" u2="&#xd8;" k="29" />
<hkern u1="[" u2="&#xd6;" k="29" />
<hkern u1="[" u2="&#xd5;" k="29" />
<hkern u1="[" u2="&#xd4;" k="29" />
<hkern u1="[" u2="&#xd3;" k="29" />
<hkern u1="[" u2="&#xd2;" k="29" />
<hkern u1="[" u2="&#xc7;" k="29" />
<hkern u1="[" u2="&#xc6;" k="29" />
<hkern u1="[" u2="&#xc5;" k="29" />
<hkern u1="[" u2="&#xc4;" k="29" />
<hkern u1="[" u2="&#xc3;" k="29" />
<hkern u1="[" u2="&#xc2;" k="29" />
<hkern u1="[" u2="&#xc1;" k="29" />
<hkern u1="[" u2="&#xc0;" k="29" />
<hkern u1="[" u2="&#xb7;" k="59" />
<hkern u1="[" u2="&#xab;" k="59" />
<hkern u1="[" u2="z" k="18" />
<hkern u1="[" u2="y" k="23" />
<hkern u1="[" u2="x" k="18" />
<hkern u1="[" u2="w" k="18" />
<hkern u1="[" u2="v" k="23" />
<hkern u1="[" u2="u" k="23" />
<hkern u1="[" u2="t" k="20" />
<hkern u1="[" u2="s" k="14" />
<hkern u1="[" u2="r" k="20" />
<hkern u1="[" u2="q" k="27" />
<hkern u1="[" u2="p" k="20" />
<hkern u1="[" u2="o" k="27" />
<hkern u1="[" u2="n" k="20" />
<hkern u1="[" u2="m" k="20" />
<hkern u1="[" u2="j" k="-29" />
<hkern u1="[" u2="f" k="23" />
<hkern u1="[" u2="e" k="27" />
<hkern u1="[" u2="d" k="27" />
<hkern u1="[" u2="c" k="27" />
<hkern u1="[" u2="a" k="14" />
<hkern u1="[" u2="Q" k="29" />
<hkern u1="[" u2="O" k="29" />
<hkern u1="[" u2="G" k="29" />
<hkern u1="[" u2="C" k="29" />
<hkern u1="[" u2="A" k="29" />
<hkern u1="[" u2="&#x2e;" k="35" />
<hkern u1="[" u2="&#x2d;" k="59" />
<hkern u1="[" u2="&#x2c;" k="35" />
<hkern u1="b" u2="x" k="23" />
<hkern u1="b" u2="]" k="27" />
<hkern u1="c" g2="uniFB01" k="12" />
<hkern u1="c" u2="&#x2039;" k="57" />
<hkern u1="c" u2="&#x2022;" k="57" />
<hkern u1="c" u2="&#x2014;" k="57" />
<hkern u1="c" u2="&#x2013;" k="57" />
<hkern u1="c" u2="&#x153;" k="31" />
<hkern u1="c" u2="&#xf8;" k="31" />
<hkern u1="c" u2="&#xf6;" k="31" />
<hkern u1="c" u2="&#xf5;" k="31" />
<hkern u1="c" u2="&#xf4;" k="31" />
<hkern u1="c" u2="&#xf3;" k="31" />
<hkern u1="c" u2="&#xf2;" k="31" />
<hkern u1="c" u2="&#xf0;" k="31" />
<hkern u1="c" u2="&#xeb;" k="31" />
<hkern u1="c" u2="&#xea;" k="31" />
<hkern u1="c" u2="&#xe9;" k="31" />
<hkern u1="c" u2="&#xe8;" k="31" />
<hkern u1="c" u2="&#xe7;" k="31" />
<hkern u1="c" u2="&#xe6;" k="8" />
<hkern u1="c" u2="&#xe5;" k="8" />
<hkern u1="c" u2="&#xe4;" k="8" />
<hkern u1="c" u2="&#xe3;" k="8" />
<hkern u1="c" u2="&#xe2;" k="8" />
<hkern u1="c" u2="&#xe1;" k="8" />
<hkern u1="c" u2="&#xe0;" k="8" />
<hkern u1="c" u2="&#xb7;" k="57" />
<hkern u1="c" u2="&#xab;" k="57" />
<hkern u1="c" u2="t" k="12" />
<hkern u1="c" u2="q" k="31" />
<hkern u1="c" u2="o" k="31" />
<hkern u1="c" u2="f" k="12" />
<hkern u1="c" u2="e" k="31" />
<hkern u1="c" u2="d" k="31" />
<hkern u1="c" u2="c" k="31" />
<hkern u1="c" u2="a" k="8" />
<hkern u1="c" u2="&#x2d;" k="57" />
<hkern u1="e" u2="x" k="23" />
<hkern u1="e" u2="]" k="27" />
<hkern u1="f" u2="g" k="33" />
<hkern u1="f" u2="]" k="-35" />
<hkern u1="g" u2="&#x2122;" k="-10" />
<hkern u1="g" u2="&#x2039;" k="35" />
<hkern u1="g" u2="&#x2022;" k="35" />
<hkern u1="g" u2="&#x201d;" k="-10" />
<hkern u1="g" u2="&#x201c;" k="-10" />
<hkern u1="g" u2="&#x2019;" k="-10" />
<hkern u1="g" u2="&#x2018;" k="-10" />
<hkern u1="g" u2="&#x2014;" k="35" />
<hkern u1="g" u2="&#x2013;" k="35" />
<hkern u1="g" u2="&#x153;" k="6" />
<hkern u1="g" u2="&#xff;" k="-18" />
<hkern u1="g" u2="&#xfd;" k="-18" />
<hkern u1="g" u2="&#xf8;" k="6" />
<hkern u1="g" u2="&#xf6;" k="6" />
<hkern u1="g" u2="&#xf5;" k="6" />
<hkern u1="g" u2="&#xf4;" k="6" />
<hkern u1="g" u2="&#xf3;" k="6" />
<hkern u1="g" u2="&#xf2;" k="6" />
<hkern u1="g" u2="&#xf0;" k="6" />
<hkern u1="g" u2="&#xeb;" k="6" />
<hkern u1="g" u2="&#xea;" k="6" />
<hkern u1="g" u2="&#xe9;" k="6" />
<hkern u1="g" u2="&#xe8;" k="6" />
<hkern u1="g" u2="&#xe7;" k="6" />
<hkern u1="g" u2="&#xe6;" k="4" />
<hkern u1="g" u2="&#xe5;" k="4" />
<hkern u1="g" u2="&#xe4;" k="4" />
<hkern u1="g" u2="&#xe3;" k="4" />
<hkern u1="g" u2="&#xe2;" k="4" />
<hkern u1="g" u2="&#xe1;" k="4" />
<hkern u1="g" u2="&#xe0;" k="4" />
<hkern u1="g" u2="&#xb7;" k="35" />
<hkern u1="g" u2="&#xb0;" k="-10" />
<hkern u1="g" u2="&#xae;" k="-10" />
<hkern u1="g" u2="&#xab;" k="35" />
<hkern u1="g" u2="y" k="-18" />
<hkern u1="g" u2="v" k="-18" />
<hkern u1="g" u2="t" k="-12" />
<hkern u1="g" u2="q" k="6" />
<hkern u1="g" u2="o" k="6" />
<hkern u1="g" u2="e" k="6" />
<hkern u1="g" u2="d" k="6" />
<hkern u1="g" u2="c" k="6" />
<hkern u1="g" u2="a" k="4" />
<hkern u1="g" u2="&#x2d;" k="35" />
<hkern u1="g" u2="&#x2a;" k="-10" />
<hkern u1="g" u2="&#x27;" k="-10" />
<hkern u1="g" u2="&#x22;" k="-10" />
<hkern u1="h" u2="&#x2122;" k="29" />
<hkern u1="h" u2="&#x201d;" k="29" />
<hkern u1="h" u2="&#x201c;" k="29" />
<hkern u1="h" u2="&#x2019;" k="29" />
<hkern u1="h" u2="&#x2018;" k="29" />
<hkern u1="h" u2="&#xff;" k="23" />
<hkern u1="h" u2="&#xfd;" k="23" />
<hkern u1="h" u2="&#xb0;" k="29" />
<hkern u1="h" u2="&#xae;" k="29" />
<hkern u1="h" u2="y" k="23" />
<hkern u1="h" u2="w" k="20" />
<hkern u1="h" u2="v" k="23" />
<hkern u1="h" u2="t" k="27" />
<hkern u1="h" u2="]" k="18" />
<hkern u1="h" u2="&#x2a;" k="29" />
<hkern u1="h" u2="&#x27;" k="29" />
<hkern u1="h" u2="&#x22;" k="29" />
<hkern u1="k" u2="g" k="14" />
<hkern u1="o" u2="x" k="23" />
<hkern u1="o" u2="]" k="27" />
<hkern u1="p" u2="x" k="23" />
<hkern u1="p" u2="]" k="27" />
<hkern u1="r" u2="&#x2122;" k="-14" />
<hkern u1="r" u2="&#x2039;" k="76" />
<hkern u1="r" u2="&#x2026;" k="141" />
<hkern u1="r" u2="&#x2022;" k="76" />
<hkern u1="r" u2="&#x201e;" k="141" />
<hkern u1="r" u2="&#x201d;" k="-14" />
<hkern u1="r" u2="&#x201c;" k="-14" />
<hkern u1="r" u2="&#x201a;" k="141" />
<hkern u1="r" u2="&#x2019;" k="-14" />
<hkern u1="r" u2="&#x2018;" k="-14" />
<hkern u1="r" u2="&#x2014;" k="76" />
<hkern u1="r" u2="&#x2013;" k="76" />
<hkern u1="r" u2="&#x153;" k="29" />
<hkern u1="r" u2="&#xf8;" k="29" />
<hkern u1="r" u2="&#xf6;" k="29" />
<hkern u1="r" u2="&#xf5;" k="29" />
<hkern u1="r" u2="&#xf4;" k="29" />
<hkern u1="r" u2="&#xf3;" k="29" />
<hkern u1="r" u2="&#xf2;" k="29" />
<hkern u1="r" u2="&#xf0;" k="29" />
<hkern u1="r" u2="&#xeb;" k="29" />
<hkern u1="r" u2="&#xea;" k="29" />
<hkern u1="r" u2="&#xe9;" k="29" />
<hkern u1="r" u2="&#xe8;" k="29" />
<hkern u1="r" u2="&#xe7;" k="29" />
<hkern u1="r" u2="&#xe6;" k="29" />
<hkern u1="r" u2="&#xe5;" k="29" />
<hkern u1="r" u2="&#xe4;" k="29" />
<hkern u1="r" u2="&#xe3;" k="29" />
<hkern u1="r" u2="&#xe2;" k="29" />
<hkern u1="r" u2="&#xe1;" k="29" />
<hkern u1="r" u2="&#xe0;" k="29" />
<hkern u1="r" u2="&#xb7;" k="76" />
<hkern u1="r" u2="&#xb0;" k="-14" />
<hkern u1="r" u2="&#xae;" k="-14" />
<hkern u1="r" u2="&#xab;" k="76" />
<hkern u1="r" u2="z" k="4" />
<hkern u1="r" u2="s" k="6" />
<hkern u1="r" u2="q" k="29" />
<hkern u1="r" u2="o" k="29" />
<hkern u1="r" u2="e" k="29" />
<hkern u1="r" u2="d" k="29" />
<hkern u1="r" u2="c" k="29" />
<hkern u1="r" u2="a" k="29" />
<hkern u1="r" u2="&#x2e;" k="141" />
<hkern u1="r" u2="&#x2d;" k="76" />
<hkern u1="r" u2="&#x2c;" k="141" />
<hkern u1="r" u2="&#x2a;" k="-14" />
<hkern u1="r" u2="&#x27;" k="-14" />
<hkern u1="r" u2="&#x22;" k="-14" />
<hkern u1="s" u2="x" k="8" />
<hkern u1="s" u2="]" k="12" />
<hkern u1="t" u2="g" k="8" />
<hkern u1="u" u2="x" k="4" />
<hkern u1="u" u2="]" k="23" />
<hkern u1="v" u2="g" k="31" />
<hkern u1="v" u2="]" k="23" />
<hkern u1="w" u2="g" k="33" />
<hkern u1="w" u2="]" k="18" />
<hkern u1="x" u2="&#x2122;" k="-4" />
<hkern u1="x" u2="&#x2039;" k="51" />
<hkern u1="x" u2="&#x2022;" k="51" />
<hkern u1="x" u2="&#x201d;" k="-4" />
<hkern u1="x" u2="&#x201c;" k="-4" />
<hkern u1="x" u2="&#x2019;" k="-4" />
<hkern u1="x" u2="&#x2018;" k="-4" />
<hkern u1="x" u2="&#x2014;" k="51" />
<hkern u1="x" u2="&#x2013;" k="51" />
<hkern u1="x" u2="&#x153;" k="23" />
<hkern u1="x" u2="&#xfc;" k="4" />
<hkern u1="x" u2="&#xfb;" k="4" />
<hkern u1="x" u2="&#xfa;" k="4" />
<hkern u1="x" u2="&#xf9;" k="4" />
<hkern u1="x" u2="&#xf8;" k="23" />
<hkern u1="x" u2="&#xf6;" k="23" />
<hkern u1="x" u2="&#xf5;" k="23" />
<hkern u1="x" u2="&#xf4;" k="23" />
<hkern u1="x" u2="&#xf3;" k="23" />
<hkern u1="x" u2="&#xf2;" k="23" />
<hkern u1="x" u2="&#xf0;" k="23" />
<hkern u1="x" u2="&#xeb;" k="23" />
<hkern u1="x" u2="&#xea;" k="23" />
<hkern u1="x" u2="&#xe9;" k="23" />
<hkern u1="x" u2="&#xe8;" k="23" />
<hkern u1="x" u2="&#xe7;" k="23" />
<hkern u1="x" u2="&#xe6;" k="2" />
<hkern u1="x" u2="&#xe5;" k="2" />
<hkern u1="x" u2="&#xe4;" k="2" />
<hkern u1="x" u2="&#xe3;" k="2" />
<hkern u1="x" u2="&#xe2;" k="2" />
<hkern u1="x" u2="&#xe1;" k="2" />
<hkern u1="x" u2="&#xe0;" k="2" />
<hkern u1="x" u2="&#xb7;" k="51" />
<hkern u1="x" u2="&#xb0;" k="-4" />
<hkern u1="x" u2="&#xae;" k="-4" />
<hkern u1="x" u2="&#xab;" k="51" />
<hkern u1="x" u2="u" k="4" />
<hkern u1="x" u2="s" k="8" />
<hkern u1="x" u2="q" k="23" />
<hkern u1="x" u2="o" k="23" />
<hkern u1="x" u2="g" k="14" />
<hkern u1="x" u2="e" k="23" />
<hkern u1="x" u2="d" k="23" />
<hkern u1="x" u2="c" k="23" />
<hkern u1="x" u2="a" k="2" />
<hkern u1="x" u2="]" k="18" />
<hkern u1="x" u2="&#x2d;" k="51" />
<hkern u1="x" u2="&#x2a;" k="-4" />
<hkern u1="x" u2="&#x27;" k="-4" />
<hkern u1="x" u2="&#x22;" k="-4" />
<hkern u1="y" u2="g" k="31" />
<hkern u1="y" u2="]" k="23" />
<hkern u1="z" u2="]" k="18" />
<hkern u1="&#xae;" u2="x" k="-4" />
<hkern u1="&#xae;" u2="g" k="29" />
<hkern u1="&#xb0;" u2="x" k="-4" />
<hkern u1="&#xb0;" u2="g" k="29" />
<hkern u1="&#xb7;" u2="x" k="51" />
<hkern u1="&#xb7;" u2="g" k="25" />
<hkern u1="&#xb7;" u2="]" k="59" />
<hkern u1="&#xbb;" u2="x" k="51" />
<hkern u1="&#xbb;" u2="g" k="25" />
<hkern u1="&#xbb;" u2="]" k="59" />
<hkern u1="&#xc0;" u2="g" k="8" />
<hkern u1="&#xc0;" u2="]" k="29" />
<hkern u1="&#xc0;" u2="J" k="-31" />
<hkern u1="&#xc1;" u2="g" k="8" />
<hkern u1="&#xc1;" u2="]" k="29" />
<hkern u1="&#xc1;" u2="J" k="-31" />
<hkern u1="&#xc2;" u2="g" k="8" />
<hkern u1="&#xc2;" u2="]" k="29" />
<hkern u1="&#xc2;" u2="J" k="-31" />
<hkern u1="&#xc3;" u2="g" k="8" />
<hkern u1="&#xc3;" u2="]" k="29" />
<hkern u1="&#xc3;" u2="J" k="-31" />
<hkern u1="&#xc4;" u2="g" k="8" />
<hkern u1="&#xc4;" u2="]" k="29" />
<hkern u1="&#xc4;" u2="J" k="-31" />
<hkern u1="&#xc5;" u2="g" k="8" />
<hkern u1="&#xc5;" u2="]" k="29" />
<hkern u1="&#xc5;" u2="J" k="-31" />
<hkern u1="&#xc7;" u2="x" k="2" />
<hkern u1="&#xd0;" u2="x" k="10" />
<hkern u1="&#xd0;" u2="]" k="23" />
<hkern u1="&#xd0;" u2="J" k="31" />
<hkern u1="&#xd2;" u2="x" k="10" />
<hkern u1="&#xd2;" u2="]" k="23" />
<hkern u1="&#xd2;" u2="J" k="31" />
<hkern u1="&#xd3;" u2="x" k="10" />
<hkern u1="&#xd3;" u2="]" k="23" />
<hkern u1="&#xd3;" u2="J" k="31" />
<hkern u1="&#xd4;" u2="x" k="10" />
<hkern u1="&#xd4;" u2="]" k="23" />
<hkern u1="&#xd4;" u2="J" k="31" />
<hkern u1="&#xd5;" u2="x" k="10" />
<hkern u1="&#xd5;" u2="]" k="23" />
<hkern u1="&#xd5;" u2="J" k="31" />
<hkern u1="&#xd6;" u2="x" k="10" />
<hkern u1="&#xd6;" u2="]" k="23" />
<hkern u1="&#xd6;" u2="J" k="31" />
<hkern u1="&#xd8;" u2="x" k="10" />
<hkern u1="&#xd8;" u2="]" k="23" />
<hkern u1="&#xd8;" u2="J" k="31" />
<hkern u1="&#xdd;" u2="x" k="4" />
<hkern u1="&#xdd;" u2="g" k="41" />
<hkern u1="&#xdd;" u2="J" k="82" />
<hkern u1="&#xe6;" u2="x" k="23" />
<hkern u1="&#xe6;" u2="]" k="27" />
<hkern u1="&#xe8;" u2="x" k="23" />
<hkern u1="&#xe8;" u2="]" k="27" />
<hkern u1="&#xe9;" u2="x" k="23" />
<hkern u1="&#xe9;" u2="]" k="27" />
<hkern u1="&#xea;" u2="x" k="23" />
<hkern u1="&#xea;" u2="]" k="27" />
<hkern u1="&#xeb;" u2="x" k="23" />
<hkern u1="&#xeb;" u2="]" k="27" />
<hkern u1="&#xf0;" u2="x" k="10" />
<hkern u1="&#xf0;" u2="]" k="23" />
<hkern u1="&#xf0;" u2="J" k="31" />
<hkern u1="&#xf2;" u2="x" k="23" />
<hkern u1="&#xf2;" u2="]" k="27" />
<hkern u1="&#xf3;" u2="x" k="23" />
<hkern u1="&#xf3;" u2="]" k="27" />
<hkern u1="&#xf4;" u2="x" k="23" />
<hkern u1="&#xf4;" u2="]" k="27" />
<hkern u1="&#xf5;" u2="x" k="23" />
<hkern u1="&#xf5;" u2="]" k="27" />
<hkern u1="&#xf6;" u2="x" k="23" />
<hkern u1="&#xf6;" u2="]" k="27" />
<hkern u1="&#xf8;" u2="x" k="23" />
<hkern u1="&#xf8;" u2="]" k="27" />
<hkern u1="&#xf9;" u2="x" k="4" />
<hkern u1="&#xf9;" u2="]" k="23" />
<hkern u1="&#xfa;" u2="x" k="4" />
<hkern u1="&#xfa;" u2="]" k="23" />
<hkern u1="&#xfb;" u2="x" k="4" />
<hkern u1="&#xfb;" u2="]" k="23" />
<hkern u1="&#xfc;" u2="x" k="4" />
<hkern u1="&#xfc;" u2="]" k="23" />
<hkern u1="&#xfd;" u2="g" k="31" />
<hkern u1="&#xfd;" u2="]" k="23" />
<hkern u1="&#xfe;" u2="x" k="23" />
<hkern u1="&#xfe;" u2="]" k="27" />
<hkern u1="&#xff;" u2="g" k="31" />
<hkern u1="&#xff;" u2="]" k="23" />
<hkern u1="&#x178;" u2="x" k="4" />
<hkern u1="&#x178;" u2="g" k="41" />
<hkern u1="&#x178;" u2="J" k="82" />
<hkern u1="&#x2013;" u2="x" k="51" />
<hkern u1="&#x2013;" u2="g" k="25" />
<hkern u1="&#x2013;" u2="]" k="59" />
<hkern u1="&#x2014;" u2="x" k="51" />
<hkern u1="&#x2014;" u2="g" k="25" />
<hkern u1="&#x2014;" u2="]" k="59" />
<hkern u1="&#x2018;" u2="x" k="-4" />
<hkern u1="&#x2018;" u2="g" k="29" />
<hkern u1="&#x2019;" u2="x" k="-4" />
<hkern u1="&#x2019;" u2="g" k="29" />
<hkern u1="&#x201c;" u2="x" k="-4" />
<hkern u1="&#x201c;" u2="g" k="29" />
<hkern u1="&#x201d;" u2="x" k="-4" />
<hkern u1="&#x201d;" u2="g" k="29" />
<hkern u1="&#x2022;" u2="x" k="51" />
<hkern u1="&#x2022;" u2="g" k="25" />
<hkern u1="&#x2022;" u2="]" k="59" />
<hkern u1="&#x203a;" u2="x" k="51" />
<hkern u1="&#x203a;" u2="g" k="25" />
<hkern u1="&#x203a;" u2="]" k="59" />
<hkern u1="&#x2122;" u2="x" k="-4" />
<hkern u1="&#x2122;" u2="g" k="29" />
<hkern g1="B" 	g2="A,Agrave,Aacute,Acircumflex,Atilde,Adieresis,Aring,AE" 	k="8" />
<hkern g1="B" 	g2="T" 	k="4" />
<hkern g1="B" 	g2="U,Ugrave,Uacute,Ucircumflex,Udieresis" 	k="14" />
<hkern g1="B" 	g2="question,V" 	k="10" />
<hkern g1="B" 	g2="v,y,yacute,ydieresis" 	k="2" />
<hkern g1="B" 	g2="w" 	k="2" />
<hkern g1="B" 	g2="quotedbl,quotesingle,asterisk,registered,degree,quoteleft,quoteright,quotedblleft,quotedblright,trademark" 	k="4" />
<hkern g1="B" 	g2="Y,Yacute,Ydieresis" 	k="8" />
<hkern g1="B" 	g2="W" 	k="31" />
<hkern g1="B" 	g2="z" 	k="6" />
<hkern g1="B" 	g2="Z" 	k="2" />
<hkern g1="B" 	g2="comma,period,quotesinglbase,quotedblbase,ellipsis" 	k="12" />
<hkern g1="C,Ccedilla" 	g2="C,G,O,Q,Ccedilla,Ograve,Oacute,Ocircumflex,Otilde,Odieresis,Oslash,OE" 	k="23" />
<hkern g1="C,Ccedilla" 	g2="c,d,e,o,q,ccedilla,egrave,eacute,ecircumflex,edieresis,eth,ograve,oacute,ocircumflex,otilde,odieresis,oslash,oe" 	k="12" />
<hkern g1="C,Ccedilla" 	g2="u,ugrave,uacute,ucircumflex,udieresis" 	k="29" />
<hkern g1="C,Ccedilla" 	g2="f,uniFB01" 	k="23" />
<hkern g1="C,Ccedilla" 	g2="t" 	k="23" />
<hkern g1="C,Ccedilla" 	g2="v,y,yacute,ydieresis" 	k="23" />
<hkern g1="C,Ccedilla" 	g2="w" 	k="12" />
<hkern g1="C,Ccedilla" 	g2="hyphen,guillemotleft,periodcentered,endash,emdash,bullet,guilsinglleft" 	k="78" />
<hkern g1="C,Ccedilla" 	g2="a,agrave,aacute,acircumflex,atilde,adieresis,aring,ae" 	k="6" />
<hkern g1="E,AE,Egrave,Eacute,Ecircumflex,Edieresis,OE" 	g2="C,G,O,Q,Ccedilla,Ograve,Oacute,Ocircumflex,Otilde,Odieresis,Oslash,OE" 	k="20" />
<hkern g1="E,AE,Egrave,Eacute,Ecircumflex,Edieresis,OE" 	g2="c,d,e,o,q,ccedilla,egrave,eacute,ecircumflex,edieresis,eth,ograve,oacute,ocircumflex,otilde,odieresis,oslash,oe" 	k="8" />
<hkern g1="E,AE,Egrave,Eacute,Ecircumflex,Edieresis,OE" 	g2="u,ugrave,uacute,ucircumflex,udieresis" 	k="4" />
<hkern g1="E,AE,Egrave,Eacute,Ecircumflex,Edieresis,OE" 	g2="f,uniFB01" 	k="20" />
<hkern g1="E,AE,Egrave,Eacute,Ecircumflex,Edieresis,OE" 	g2="t" 	k="20" />
<hkern g1="E,AE,Egrave,Eacute,Ecircumflex,Edieresis,OE" 	g2="v,y,yacute,ydieresis" 	k="8" />
<hkern g1="E,AE,Egrave,Eacute,Ecircumflex,Edieresis,OE" 	g2="w" 	k="6" />
<hkern g1="E,AE,Egrave,Eacute,Ecircumflex,Edieresis,OE" 	g2="hyphen,guillemotleft,periodcentered,endash,emdash,bullet,guilsinglleft" 	k="8" />
<hkern g1="E,AE,Egrave,Eacute,Ecircumflex,Edieresis,OE" 	g2="a,agrave,aacute,acircumflex,atilde,adieresis,aring,ae" 	k="12" />
<hkern g1="F" 	g2="A,Agrave,Aacute,Acircumflex,Atilde,Adieresis,Aring,AE" 	k="61" />
<hkern g1="F" 	g2="T" 	k="-23" />
<hkern g1="F" 	g2="C,G,O,Q,Ccedilla,Ograve,Oacute,Ocircumflex,Otilde,Odieresis,Oslash,OE" 	k="20" />
<hkern g1="F" 	g2="c,d,e,o,q,ccedilla,egrave,eacute,ecircumflex,edieresis,eth,ograve,oacute,ocircumflex,otilde,odieresis,oslash,oe" 	k="35" />
<hkern g1="F" 	g2="u,ugrave,uacute,ucircumflex,udieresis" 	k="35" />
<hkern g1="F" 	g2="f,uniFB01" 	k="8" />
<hkern g1="F" 	g2="t" 	k="8" />
<hkern g1="F" 	g2="v,y,yacute,ydieresis" 	k="35" />
<hkern g1="F" 	g2="w" 	k="29" />
<hkern g1="F" 	g2="hyphen,guillemotleft,periodcentered,endash,emdash,bullet,guilsinglleft" 	k="39" />
<hkern g1="F" 	g2="a,agrave,aacute,acircumflex,atilde,adieresis,aring,ae" 	k="43" />
<hkern g1="F" 	g2="s" 	k="31" />
<hkern g1="F" 	g2="z" 	k="59" />
<hkern g1="F" 	g2="comma,period,quotesinglbase,quotedblbase,ellipsis" 	k="141" />
<hkern g1="F" 	g2="S" 	k="12" />
<hkern g1="F" 	g2="m,n,p,r,ntilde" 	k="35" />
<hkern g1="G" 	g2="question,V" 	k="18" />
<hkern g1="G" 	g2="f,uniFB01" 	k="27" />
<hkern g1="G" 	g2="t" 	k="27" />
<hkern g1="G" 	g2="v,y,yacute,ydieresis" 	k="23" />
<hkern g1="G" 	g2="w" 	k="14" />
<hkern g1="G" 	g2="quotedbl,quotesingle,asterisk,registered,degree,quoteleft,quoteright,quotedblleft,quotedblright,trademark" 	k="18" />
<hkern g1="G" 	g2="Y,Yacute,Ydieresis" 	k="18" />
<hkern g1="G" 	g2="W" 	k="18" />
<hkern g1="K" 	g2="C,G,O,Q,Ccedilla,Ograve,Oacute,Ocircumflex,Otilde,Odieresis,Oslash,OE" 	k="39" />
<hkern g1="K" 	g2="c,d,e,o,q,ccedilla,egrave,eacute,ecircumflex,edieresis,eth,ograve,oacute,ocircumflex,otilde,odieresis,oslash,oe" 	k="27" />
<hkern g1="K" 	g2="u,ugrave,uacute,ucircumflex,udieresis" 	k="16" />
<hkern g1="K" 	g2="f,uniFB01" 	k="27" />
<hkern g1="K" 	g2="t" 	k="29" />
<hkern g1="K" 	g2="v,y,yacute,ydieresis" 	k="35" />
<hkern g1="K" 	g2="w" 	k="18" />
<hkern g1="K" 	g2="hyphen,guillemotleft,periodcentered,endash,emdash,bullet,guilsinglleft" 	k="92" />
<hkern g1="K" 	g2="a,agrave,aacute,acircumflex,atilde,adieresis,aring,ae" 	k="16" />
<hkern g1="K" 	g2="m,n,p,r,ntilde" 	k="6" />
<hkern g1="L" 	g2="T" 	k="80" />
<hkern g1="L" 	g2="U,Ugrave,Uacute,Ucircumflex,Udieresis" 	k="14" />
<hkern g1="L" 	g2="question,V" 	k="86" />
<hkern g1="L" 	g2="C,G,O,Q,Ccedilla,Ograve,Oacute,Ocircumflex,Otilde,Odieresis,Oslash,OE" 	k="23" />
<hkern g1="L" 	g2="c,d,e,o,q,ccedilla,egrave,eacute,ecircumflex,edieresis,eth,ograve,oacute,ocircumflex,otilde,odieresis,oslash,oe" 	k="16" />
<hkern g1="L" 	g2="u,ugrave,uacute,ucircumflex,udieresis" 	k="16" />
<hkern g1="L" 	g2="f,uniFB01" 	k="35" />
<hkern g1="L" 	g2="t" 	k="35" />
<hkern g1="L" 	g2="v,y,yacute,ydieresis" 	k="84" />
<hkern g1="L" 	g2="w" 	k="47" />
<hkern g1="L" 	g2="quotedbl,quotesingle,asterisk,registered,degree,quoteleft,quoteright,quotedblleft,quotedblright,trademark" 	k="113" />
<hkern g1="L" 	g2="hyphen,guillemotleft,periodcentered,endash,emdash,bullet,guilsinglleft" 	k="184" />
<hkern g1="L" 	g2="a,agrave,aacute,acircumflex,atilde,adieresis,aring,ae" 	k="10" />
<hkern g1="L" 	g2="Y,Yacute,Ydieresis" 	k="23" />
<hkern g1="L" 	g2="W" 	k="66" />
<hkern g1="D,O,Q,Eth,Ograve,Oacute,Ocircumflex,Otilde,Odieresis,Oslash,eth" 	g2="A,Agrave,Aacute,Acircumflex,Atilde,Adieresis,Aring,AE" 	k="27" />
<hkern g1="D,O,Q,Eth,Ograve,Oacute,Ocircumflex,Otilde,Odieresis,Oslash,eth" 	g2="T" 	k="35" />
<hkern g1="D,O,Q,Eth,Ograve,Oacute,Ocircumflex,Otilde,Odieresis,Oslash,eth" 	g2="question,V" 	k="25" />
<hkern g1="D,O,Q,Eth,Ograve,Oacute,Ocircumflex,Otilde,Odieresis,Oslash,eth" 	g2="f,uniFB01" 	k="18" />
<hkern g1="D,O,Q,Eth,Ograve,Oacute,Ocircumflex,Otilde,Odieresis,Oslash,eth" 	g2="t" 	k="18" />
<hkern g1="D,O,Q,Eth,Ograve,Oacute,Ocircumflex,Otilde,Odieresis,Oslash,eth" 	g2="v,y,yacute,ydieresis" 	k="18" />
<hkern g1="D,O,Q,Eth,Ograve,Oacute,Ocircumflex,Otilde,Odieresis,Oslash,eth" 	g2="w" 	k="10" />
<hkern g1="D,O,Q,Eth,Ograve,Oacute,Ocircumflex,Otilde,Odieresis,Oslash,eth" 	g2="quotedbl,quotesingle,asterisk,registered,degree,quoteleft,quoteright,quotedblleft,quotedblright,trademark" 	k="39" />
<hkern g1="D,O,Q,Eth,Ograve,Oacute,Ocircumflex,Otilde,Odieresis,Oslash,eth" 	g2="a,agrave,aacute,acircumflex,atilde,adieresis,aring,ae" 	k="4" />
<hkern g1="D,O,Q,Eth,Ograve,Oacute,Ocircumflex,Otilde,Odieresis,Oslash,eth" 	g2="Y,Yacute,Ydieresis" 	k="35" />
<hkern g1="D,O,Q,Eth,Ograve,Oacute,Ocircumflex,Otilde,Odieresis,Oslash,eth" 	g2="W" 	k="23" />
<hkern g1="D,O,Q,Eth,Ograve,Oacute,Ocircumflex,Otilde,Odieresis,Oslash,eth" 	g2="z" 	k="8" />
<hkern g1="D,O,Q,Eth,Ograve,Oacute,Ocircumflex,Otilde,Odieresis,Oslash,eth" 	g2="Z" 	k="27" />
<hkern g1="D,O,Q,Eth,Ograve,Oacute,Ocircumflex,Otilde,Odieresis,Oslash,eth" 	g2="comma,period,quotesinglbase,quotedblbase,ellipsis" 	k="37" />
<hkern g1="D,O,Q,Eth,Ograve,Oacute,Ocircumflex,Otilde,Odieresis,Oslash,eth" 	g2="X" 	k="35" />
<hkern g1="P" 	g2="A,Agrave,Aacute,Acircumflex,Atilde,Adieresis,Aring,AE" 	k="41" />
<hkern g1="P" 	g2="T" 	k="8" />
<hkern g1="P" 	g2="question,V" 	k="4" />
<hkern g1="P" 	g2="c,d,e,o,q,ccedilla,egrave,eacute,ecircumflex,edieresis,eth,ograve,oacute,ocircumflex,otilde,odieresis,oslash,oe" 	k="16" />
<hkern g1="P" 	g2="quotedbl,quotesingle,asterisk,registered,degree,quoteleft,quoteright,quotedblleft,quotedblright,trademark" 	k="6" />
<hkern g1="P" 	g2="hyphen,guillemotleft,periodcentered,endash,emdash,bullet,guilsinglleft" 	k="8" />
<hkern g1="P" 	g2="a,agrave,aacute,acircumflex,atilde,adieresis,aring,ae" 	k="31" />
<hkern g1="P" 	g2="Y,Yacute,Ydieresis" 	k="4" />
<hkern g1="P" 	g2="W" 	k="4" />
<hkern g1="P" 	g2="Z" 	k="4" />
<hkern g1="P" 	g2="comma,period,quotesinglbase,quotedblbase,ellipsis" 	k="166" />
<hkern g1="R" 	g2="U,Ugrave,Uacute,Ucircumflex,Udieresis" 	k="12" />
<hkern g1="R" 	g2="question,V" 	k="4" />
<hkern g1="R" 	g2="C,G,O,Q,Ccedilla,Ograve,Oacute,Ocircumflex,Otilde,Odieresis,Oslash,OE" 	k="6" />
<hkern g1="R" 	g2="c,d,e,o,q,ccedilla,egrave,eacute,ecircumflex,edieresis,eth,ograve,oacute,ocircumflex,otilde,odieresis,oslash,oe" 	k="4" />
<hkern g1="R" 	g2="u,ugrave,uacute,ucircumflex,udieresis" 	k="4" />
<hkern g1="R" 	g2="hyphen,guillemotleft,periodcentered,endash,emdash,bullet,guilsinglleft" 	k="35" />
<hkern g1="R" 	g2="a,agrave,aacute,acircumflex,atilde,adieresis,aring,ae" 	k="8" />
<hkern g1="R" 	g2="Y,Yacute,Ydieresis" 	k="4" />
<hkern g1="R" 	g2="W" 	k="4" />
<hkern g1="S" 	g2="A,Agrave,Aacute,Acircumflex,Atilde,Adieresis,Aring,AE" 	k="12" />
<hkern g1="S" 	g2="T" 	k="20" />
<hkern g1="S" 	g2="question,V" 	k="4" />
<hkern g1="S" 	g2="f,uniFB01" 	k="8" />
<hkern g1="S" 	g2="t" 	k="8" />
<hkern g1="S" 	g2="v,y,yacute,ydieresis" 	k="20" />
<hkern g1="S" 	g2="w" 	k="20" />
<hkern g1="S" 	g2="quotedbl,quotesingle,asterisk,registered,degree,quoteleft,quoteright,quotedblleft,quotedblright,trademark" 	k="8" />
<hkern g1="S" 	g2="Y,Yacute,Ydieresis" 	k="10" />
<hkern g1="S" 	g2="s" 	k="10" />
<hkern g1="S" 	g2="W" 	k="4" />
<hkern g1="S" 	g2="z" 	k="16" />
<hkern g1="S" 	g2="comma,period,quotesinglbase,quotedblbase,ellipsis" 	k="18" />
<hkern g1="S" 	g2="S" 	k="27" />
<hkern g1="S" 	g2="X" 	k="6" />
<hkern g1="T" 	g2="A,Agrave,Aacute,Acircumflex,Atilde,Adieresis,Aring,AE" 	k="82" />
<hkern g1="T" 	g2="T" 	k="-33" />
<hkern g1="T" 	g2="C,G,O,Q,Ccedilla,Ograve,Oacute,Ocircumflex,Otilde,Odieresis,Oslash,OE" 	k="35" />
<hkern g1="T" 	g2="c,d,e,o,q,ccedilla,egrave,eacute,ecircumflex,edieresis,eth,ograve,oacute,ocircumflex,otilde,odieresis,oslash,oe" 	k="104" />
<hkern g1="T" 	g2="u,ugrave,uacute,ucircumflex,udieresis" 	k="90" />
<hkern g1="T" 	g2="f,uniFB01" 	k="70" />
<hkern g1="T" 	g2="t" 	k="35" />
<hkern g1="T" 	g2="v,y,yacute,ydieresis" 	k="84" />
<hkern g1="T" 	g2="w" 	k="84" />
<hkern g1="T" 	g2="hyphen,guillemotleft,periodcentered,endash,emdash,bullet,guilsinglleft" 	k="150" />
<hkern g1="T" 	g2="a,agrave,aacute,acircumflex,atilde,adieresis,aring,ae" 	k="94" />
<hkern g1="T" 	g2="s" 	k="90" />
<hkern g1="T" 	g2="z" 	k="84" />
<hkern g1="T" 	g2="comma,period,quotesinglbase,quotedblbase,ellipsis" 	k="231" />
<hkern g1="T" 	g2="m,n,p,r,ntilde" 	k="78" />
<hkern g1="J,U,Ugrave,Uacute,Ucircumflex,Udieresis" 	g2="A,Agrave,Aacute,Acircumflex,Atilde,Adieresis,Aring,AE" 	k="39" />
<hkern g1="J,U,Ugrave,Uacute,Ucircumflex,Udieresis" 	g2="Z" 	k="14" />
<hkern g1="J,U,Ugrave,Uacute,Ucircumflex,Udieresis" 	g2="X" 	k="23" />
<hkern g1="V" 	g2="A,Agrave,Aacute,Acircumflex,Atilde,Adieresis,Aring,AE" 	k="63" />
<hkern g1="V" 	g2="C,G,O,Q,Ccedilla,Ograve,Oacute,Ocircumflex,Otilde,Odieresis,Oslash,OE" 	k="25" />
<hkern g1="V" 	g2="c,d,e,o,q,ccedilla,egrave,eacute,ecircumflex,edieresis,eth,ograve,oacute,ocircumflex,otilde,odieresis,oslash,oe" 	k="49" />
<hkern g1="V" 	g2="u,ugrave,uacute,ucircumflex,udieresis" 	k="23" />
<hkern g1="V" 	g2="f,uniFB01" 	k="18" />
<hkern g1="V" 	g2="t" 	k="18" />
<hkern g1="V" 	g2="v,y,yacute,ydieresis" 	k="33" />
<hkern g1="V" 	g2="w" 	k="33" />
<hkern g1="V" 	g2="quotedbl,quotesingle,asterisk,registered,degree,quoteleft,quoteright,quotedblleft,quotedblright,trademark" 	k="-4" />
<hkern g1="V" 	g2="hyphen,guillemotleft,periodcentered,endash,emdash,bullet,guilsinglleft" 	k="98" />
<hkern g1="V" 	g2="a,agrave,aacute,acircumflex,atilde,adieresis,aring,ae" 	k="51" />
<hkern g1="V" 	g2="s" 	k="39" />
<hkern g1="V" 	g2="z" 	k="45" />
<hkern g1="V" 	g2="comma,period,quotesinglbase,quotedblbase,ellipsis" 	k="117" />
<hkern g1="V" 	g2="S" 	k="23" />
<hkern g1="V" 	g2="m,n,p,r,ntilde" 	k="23" />
<hkern g1="W" 	g2="A,Agrave,Aacute,Acircumflex,Atilde,Adieresis,Aring,AE" 	k="43" />
<hkern g1="W" 	g2="C,G,O,Q,Ccedilla,Ograve,Oacute,Ocircumflex,Otilde,Odieresis,Oslash,OE" 	k="23" />
<hkern g1="W" 	g2="c,d,e,o,q,ccedilla,egrave,eacute,ecircumflex,edieresis,eth,ograve,oacute,ocircumflex,otilde,odieresis,oslash,oe" 	k="41" />
<hkern g1="W" 	g2="u,ugrave,uacute,ucircumflex,udieresis" 	k="14" />
<hkern g1="W" 	g2="f,uniFB01" 	k="20" />
<hkern g1="W" 	g2="t" 	k="27" />
<hkern g1="W" 	g2="v,y,yacute,ydieresis" 	k="23" />
<hkern g1="W" 	g2="w" 	k="25" />
<hkern g1="W" 	g2="hyphen,guillemotleft,periodcentered,endash,emdash,bullet,guilsinglleft" 	k="14" />
<hkern g1="W" 	g2="a,agrave,aacute,acircumflex,atilde,adieresis,aring,ae" 	k="39" />
<hkern g1="W" 	g2="s" 	k="29" />
<hkern g1="W" 	g2="z" 	k="27" />
<hkern g1="W" 	g2="comma,period,quotesinglbase,quotedblbase,ellipsis" 	k="96" />
<hkern g1="W" 	g2="S" 	k="16" />
<hkern g1="W" 	g2="m,n,p,r,ntilde" 	k="14" />
<hkern g1="X" 	g2="U,Ugrave,Uacute,Ucircumflex,Udieresis" 	k="23" />
<hkern g1="X" 	g2="C,G,O,Q,Ccedilla,Ograve,Oacute,Ocircumflex,Otilde,Odieresis,Oslash,OE" 	k="35" />
<hkern g1="X" 	g2="c,d,e,o,q,ccedilla,egrave,eacute,ecircumflex,edieresis,eth,ograve,oacute,ocircumflex,otilde,odieresis,oslash,oe" 	k="27" />
<hkern g1="X" 	g2="u,ugrave,uacute,ucircumflex,udieresis" 	k="25" />
<hkern g1="X" 	g2="t" 	k="23" />
<hkern g1="X" 	g2="v,y,yacute,ydieresis" 	k="31" />
<hkern g1="X" 	g2="w" 	k="23" />
<hkern g1="X" 	g2="hyphen,guillemotleft,periodcentered,endash,emdash,bullet,guilsinglleft" 	k="84" />
<hkern g1="X" 	g2="a,agrave,aacute,acircumflex,atilde,adieresis,aring,ae" 	k="20" />
<hkern g1="X" 	g2="s" 	k="16" />
<hkern g1="X" 	g2="z" 	k="12" />
<hkern g1="X" 	g2="m,n,p,r,ntilde" 	k="6" />
<hkern g1="Y,Yacute,Ydieresis" 	g2="A,Agrave,Aacute,Acircumflex,Atilde,Adieresis,Aring,AE" 	k="72" />
<hkern g1="Y,Yacute,Ydieresis" 	g2="C,G,O,Q,Ccedilla,Ograve,Oacute,Ocircumflex,Otilde,Odieresis,Oslash,OE" 	k="35" />
<hkern g1="Y,Yacute,Ydieresis" 	g2="c,d,e,o,q,ccedilla,egrave,eacute,ecircumflex,edieresis,eth,ograve,oacute,ocircumflex,otilde,odieresis,oslash,oe" 	k="76" />
<hkern g1="Y,Yacute,Ydieresis" 	g2="u,ugrave,uacute,ucircumflex,udieresis" 	k="39" />
<hkern g1="Y,Yacute,Ydieresis" 	g2="f,uniFB01" 	k="20" />
<hkern g1="Y,Yacute,Ydieresis" 	g2="t" 	k="20" />
<hkern g1="Y,Yacute,Ydieresis" 	g2="v,y,yacute,ydieresis" 	k="39" />
<hkern g1="Y,Yacute,Ydieresis" 	g2="w" 	k="31" />
<hkern g1="Y,Yacute,Ydieresis" 	g2="hyphen,guillemotleft,periodcentered,endash,emdash,bullet,guilsinglleft" 	k="115" />
<hkern g1="Y,Yacute,Ydieresis" 	g2="a,agrave,aacute,acircumflex,atilde,adieresis,aring,ae" 	k="51" />
<hkern g1="Y,Yacute,Ydieresis" 	g2="s" 	k="61" />
<hkern g1="Y,Yacute,Ydieresis" 	g2="z" 	k="43" />
<hkern g1="Y,Yacute,Ydieresis" 	g2="Z" 	k="10" />
<hkern g1="Y,Yacute,Ydieresis" 	g2="comma,period,quotesinglbase,quotedblbase,ellipsis" 	k="100" />
<hkern g1="Y,Yacute,Ydieresis" 	g2="S" 	k="23" />
<hkern g1="Y,Yacute,Ydieresis" 	g2="m,n,p,r,ntilde" 	k="39" />
<hkern g1="Z" 	g2="U,Ugrave,Uacute,Ucircumflex,Udieresis" 	k="14" />
<hkern g1="Z" 	g2="C,G,O,Q,Ccedilla,Ograve,Oacute,Ocircumflex,Otilde,Odieresis,Oslash,OE" 	k="27" />
<hkern g1="Z" 	g2="c,d,e,o,q,ccedilla,egrave,eacute,ecircumflex,edieresis,eth,ograve,oacute,ocircumflex,otilde,odieresis,oslash,oe" 	k="27" />
<hkern g1="Z" 	g2="u,ugrave,uacute,ucircumflex,udieresis" 	k="20" />
<hkern g1="Z" 	g2="f,uniFB01" 	k="14" />
<hkern g1="Z" 	g2="t" 	k="14" />
<hkern g1="Z" 	g2="v,y,yacute,ydieresis" 	k="27" />
<hkern g1="Z" 	g2="w" 	k="29" />
<hkern g1="Z" 	g2="hyphen,guillemotleft,periodcentered,endash,emdash,bullet,guilsinglleft" 	k="80" />
<hkern g1="Z" 	g2="a,agrave,aacute,acircumflex,atilde,adieresis,aring,ae" 	k="27" />
<hkern g1="Z" 	g2="s" 	k="14" />
<hkern g1="Z" 	g2="z" 	k="25" />
<hkern g1="Z" 	g2="Z" 	k="18" />
<hkern g1="Z" 	g2="m,n,p,r,ntilde" 	k="6" />
<hkern g1="f" 	g2="c,d,e,o,q,ccedilla,egrave,eacute,ecircumflex,edieresis,eth,ograve,oacute,ocircumflex,otilde,odieresis,oslash,oe" 	k="41" />
<hkern g1="f" 	g2="f,uniFB01" 	k="10" />
<hkern g1="f" 	g2="quotedbl,quotesingle,asterisk,registered,degree,quoteleft,quoteright,quotedblleft,quotedblright,trademark" 	k="-41" />
<hkern g1="f" 	g2="hyphen,guillemotleft,periodcentered,endash,emdash,bullet,guilsinglleft" 	k="70" />
<hkern g1="f" 	g2="a,agrave,aacute,acircumflex,atilde,adieresis,aring,ae" 	k="37" />
<hkern g1="f" 	g2="s" 	k="20" />
<hkern g1="f" 	g2="z" 	k="23" />
<hkern g1="f" 	g2="comma,period,quotesinglbase,quotedblbase,ellipsis" 	k="82" />
<hkern g1="hyphen,periodcentered,guillemotright,endash,emdash,bullet,guilsinglright" 	g2="A,Agrave,Aacute,Acircumflex,Atilde,Adieresis,Aring,AE" 	k="43" />
<hkern g1="hyphen,periodcentered,guillemotright,endash,emdash,bullet,guilsinglright" 	g2="T" 	k="150" />
<hkern g1="hyphen,periodcentered,guillemotright,endash,emdash,bullet,guilsinglright" 	g2="question,V" 	k="98" />
<hkern g1="hyphen,periodcentered,guillemotright,endash,emdash,bullet,guilsinglright" 	g2="f,uniFB01" 	k="29" />
<hkern g1="hyphen,periodcentered,guillemotright,endash,emdash,bullet,guilsinglright" 	g2="t" 	k="47" />
<hkern g1="hyphen,periodcentered,guillemotright,endash,emdash,bullet,guilsinglright" 	g2="v,y,yacute,ydieresis" 	k="39" />
<hkern g1="hyphen,periodcentered,guillemotright,endash,emdash,bullet,guilsinglright" 	g2="w" 	k="33" />
<hkern g1="hyphen,periodcentered,guillemotright,endash,emdash,bullet,guilsinglright" 	g2="quotedbl,quotesingle,asterisk,registered,degree,quoteleft,quoteright,quotedblleft,quotedblright,trademark" 	k="76" />
<hkern g1="hyphen,periodcentered,guillemotright,endash,emdash,bullet,guilsinglright" 	g2="Y,Yacute,Ydieresis" 	k="115" />
<hkern g1="hyphen,periodcentered,guillemotright,endash,emdash,bullet,guilsinglright" 	g2="s" 	k="12" />
<hkern g1="hyphen,periodcentered,guillemotright,endash,emdash,bullet,guilsinglright" 	g2="W" 	k="12" />
<hkern g1="hyphen,periodcentered,guillemotright,endash,emdash,bullet,guilsinglright" 	g2="z" 	k="45" />
<hkern g1="hyphen,periodcentered,guillemotright,endash,emdash,bullet,guilsinglright" 	g2="Z" 	k="61" />
<hkern g1="hyphen,periodcentered,guillemotright,endash,emdash,bullet,guilsinglright" 	g2="comma,period,quotesinglbase,quotedblbase,ellipsis" 	k="94" />
<hkern g1="hyphen,periodcentered,guillemotright,endash,emdash,bullet,guilsinglright" 	g2="X" 	k="84" />
<hkern g1="k" 	g2="c,d,e,o,q,ccedilla,egrave,eacute,ecircumflex,edieresis,eth,ograve,oacute,ocircumflex,otilde,odieresis,oslash,oe" 	k="20" />
<hkern g1="k" 	g2="u,ugrave,uacute,ucircumflex,udieresis" 	k="2" />
<hkern g1="k" 	g2="quotedbl,quotesingle,asterisk,registered,degree,quoteleft,quoteright,quotedblleft,quotedblright,trademark" 	k="-4" />
<hkern g1="k" 	g2="hyphen,guillemotleft,periodcentered,endash,emdash,bullet,guilsinglleft" 	k="51" />
<hkern g1="k" 	g2="a,agrave,aacute,acircumflex,atilde,adieresis,aring,ae" 	k="2" />
<hkern g1="k" 	g2="s" 	k="4" />
<hkern g1="b,e,o,p,ae,egrave,eacute,ecircumflex,edieresis,ograve,oacute,ocircumflex,otilde,odieresis,oslash,thorn" 	g2="f,uniFB01" 	k="20" />
<hkern g1="b,e,o,p,ae,egrave,eacute,ecircumflex,edieresis,ograve,oacute,ocircumflex,otilde,odieresis,oslash,thorn" 	g2="t" 	k="23" />
<hkern g1="b,e,o,p,ae,egrave,eacute,ecircumflex,edieresis,ograve,oacute,ocircumflex,otilde,odieresis,oslash,thorn" 	g2="v,y,yacute,ydieresis" 	k="27" />
<hkern g1="b,e,o,p,ae,egrave,eacute,ecircumflex,edieresis,ograve,oacute,ocircumflex,otilde,odieresis,oslash,thorn" 	g2="w" 	k="20" />
<hkern g1="b,e,o,p,ae,egrave,eacute,ecircumflex,edieresis,ograve,oacute,ocircumflex,otilde,odieresis,oslash,thorn" 	g2="quotedbl,quotesingle,asterisk,registered,degree,quoteleft,quoteright,quotedblleft,quotedblright,trademark" 	k="25" />
<hkern g1="b,e,o,p,ae,egrave,eacute,ecircumflex,edieresis,ograve,oacute,ocircumflex,otilde,odieresis,oslash,thorn" 	g2="s" 	k="4" />
<hkern g1="b,e,o,p,ae,egrave,eacute,ecircumflex,edieresis,ograve,oacute,ocircumflex,otilde,odieresis,oslash,thorn" 	g2="z" 	k="18" />
<hkern g1="b,e,o,p,ae,egrave,eacute,ecircumflex,edieresis,ograve,oacute,ocircumflex,otilde,odieresis,oslash,thorn" 	g2="comma,period,quotesinglbase,quotedblbase,ellipsis" 	k="29" />
<hkern g1="q" 	g2="quotedbl,quotesingle,asterisk,registered,degree,quoteleft,quoteright,quotedblleft,quotedblright,trademark" 	k="18" />
<hkern g1="quotedbl,quotesingle,asterisk,registered,degree,quoteleft,quoteright,quotedblleft,quotedblright,trademark" 	g2="A,Agrave,Aacute,Acircumflex,Atilde,Adieresis,Aring,AE" 	k="63" />
<hkern g1="quotedbl,quotesingle,asterisk,registered,degree,quoteleft,quoteright,quotedblleft,quotedblright,trademark" 	g2="C,G,O,Q,Ccedilla,Ograve,Oacute,Ocircumflex,Otilde,Odieresis,Oslash,OE" 	k="39" />
<hkern g1="quotedbl,quotesingle,asterisk,registered,degree,quoteleft,quoteright,quotedblleft,quotedblright,trademark" 	g2="c,d,e,o,q,ccedilla,egrave,eacute,ecircumflex,edieresis,eth,ograve,oacute,ocircumflex,otilde,odieresis,oslash,oe" 	k="25" />
<hkern g1="quotedbl,quotesingle,asterisk,registered,degree,quoteleft,quoteright,quotedblleft,quotedblright,trademark" 	g2="u,ugrave,uacute,ucircumflex,udieresis" 	k="18" />
<hkern g1="quotedbl,quotesingle,asterisk,registered,degree,quoteleft,quoteright,quotedblleft,quotedblright,trademark" 	g2="t" 	k="-8" />
<hkern g1="quotedbl,quotesingle,asterisk,registered,degree,quoteleft,quoteright,quotedblleft,quotedblright,trademark" 	g2="v,y,yacute,ydieresis" 	k="-12" />
<hkern g1="quotedbl,quotesingle,asterisk,registered,degree,quoteleft,quoteright,quotedblleft,quotedblright,trademark" 	g2="hyphen,guillemotleft,periodcentered,endash,emdash,bullet,guilsinglleft" 	k="76" />
<hkern g1="quotedbl,quotesingle,asterisk,registered,degree,quoteleft,quoteright,quotedblleft,quotedblright,trademark" 	g2="s" 	k="18" />
<hkern g1="quotedbl,quotesingle,asterisk,registered,degree,quoteleft,quoteright,quotedblleft,quotedblright,trademark" 	g2="comma,period,quotesinglbase,quotedblbase,ellipsis" 	k="86" />
<hkern g1="quotedbl,quotesingle,asterisk,registered,degree,quoteleft,quoteright,quotedblleft,quotedblright,trademark" 	g2="S" 	k="12" />
<hkern g1="s" 	g2="f,uniFB01" 	k="10" />
<hkern g1="s" 	g2="t" 	k="20" />
<hkern g1="s" 	g2="v,y,yacute,ydieresis" 	k="23" />
<hkern g1="s" 	g2="w" 	k="14" />
<hkern g1="s" 	g2="hyphen,guillemotleft,periodcentered,endash,emdash,bullet,guilsinglleft" 	k="12" />
<hkern g1="s" 	g2="s" 	k="6" />
<hkern g1="t" 	g2="c,d,e,o,q,ccedilla,egrave,eacute,ecircumflex,edieresis,eth,ograve,oacute,ocircumflex,otilde,odieresis,oslash,oe" 	k="18" />
<hkern g1="t" 	g2="u,ugrave,uacute,ucircumflex,udieresis" 	k="6" />
<hkern g1="t" 	g2="quotedbl,quotesingle,asterisk,registered,degree,quoteleft,quoteright,quotedblleft,quotedblright,trademark" 	k="-8" />
<hkern g1="t" 	g2="hyphen,guillemotleft,periodcentered,endash,emdash,bullet,guilsinglleft" 	k="61" />
<hkern g1="t" 	g2="a,agrave,aacute,acircumflex,atilde,adieresis,aring,ae" 	k="12" />
<hkern g1="t" 	g2="s" 	k="6" />
<hkern g1="u,ugrave,uacute,ucircumflex,udieresis" 	g2="t" 	k="29" />
<hkern g1="u,ugrave,uacute,ucircumflex,udieresis" 	g2="quotedbl,quotesingle,asterisk,registered,degree,quoteleft,quoteright,quotedblleft,quotedblright,trademark" 	k="18" />
<hkern g1="u,ugrave,uacute,ucircumflex,udieresis" 	g2="z" 	k="8" />
<hkern g1="u,ugrave,uacute,ucircumflex,udieresis" 	g2="comma,period,quotesinglbase,quotedblbase,ellipsis" 	k="31" />
<hkern g1="v,y,yacute,ydieresis" 	g2="c,d,e,o,q,ccedilla,egrave,eacute,ecircumflex,edieresis,eth,ograve,oacute,ocircumflex,otilde,odieresis,oslash,oe" 	k="27" />
<hkern g1="v,y,yacute,ydieresis" 	g2="v,y,yacute,ydieresis" 	k="14" />
<hkern g1="v,y,yacute,ydieresis" 	g2="w" 	k="23" />
<hkern g1="v,y,yacute,ydieresis" 	g2="quotedbl,quotesingle,asterisk,registered,degree,quoteleft,quoteright,quotedblleft,quotedblright,trademark" 	k="-18" />
<hkern g1="v,y,yacute,ydieresis" 	g2="hyphen,guillemotleft,periodcentered,endash,emdash,bullet,guilsinglleft" 	k="39" />
<hkern g1="v,y,yacute,ydieresis" 	g2="a,agrave,aacute,acircumflex,atilde,adieresis,aring,ae" 	k="31" />
<hkern g1="v,y,yacute,ydieresis" 	g2="s" 	k="14" />
<hkern g1="v,y,yacute,ydieresis" 	g2="comma,period,quotesinglbase,quotedblbase,ellipsis" 	k="63" />
<hkern g1="w" 	g2="c,d,e,o,q,ccedilla,egrave,eacute,ecircumflex,edieresis,eth,ograve,oacute,ocircumflex,otilde,odieresis,oslash,oe" 	k="20" />
<hkern g1="w" 	g2="v,y,yacute,ydieresis" 	k="23" />
<hkern g1="w" 	g2="w" 	k="14" />
<hkern g1="w" 	g2="hyphen,guillemotleft,periodcentered,endash,emdash,bullet,guilsinglleft" 	k="33" />
<hkern g1="w" 	g2="a,agrave,aacute,acircumflex,atilde,adieresis,aring,ae" 	k="41" />
<hkern g1="w" 	g2="s" 	k="12" />
<hkern g1="w" 	g2="comma,period,quotesinglbase,quotedblbase,ellipsis" 	k="57" />
<hkern g1="z" 	g2="c,d,e,o,q,ccedilla,egrave,eacute,ecircumflex,edieresis,eth,ograve,oacute,ocircumflex,otilde,odieresis,oslash,oe" 	k="18" />
<hkern g1="z" 	g2="hyphen,guillemotleft,periodcentered,endash,emdash,bullet,guilsinglleft" 	k="37" />
<hkern g1="z" 	g2="a,agrave,aacute,acircumflex,atilde,adieresis,aring,ae" 	k="14" />
</font>
</defs></svg> 